0: 1 2 3 4 5 590 662 716 719 739 1044 1106 1140
1: 0 2 4 5 360
2: 0 1 4 5 11 317 337 360
3: 0 6 11 14 20 28 52 53 61 66 84 137 152 161 162 196 226 257 266 270 277 280 282 283 330 415 438 439 441 458 512 527 535 547 550 551 582 607 661 676 682 683 689 698 709 712 713 715 724 827 844 847 856 878 879 885 938 939 940 941 951 961 997 1005 1007 1019 1020 1035 1037 1039 1041 1043 1060 1082 1103 1106 1114 1124 1133 1161 1199 1206 1243 1270 1312 1354 1372 1394 1399 1408 1469 1509 1540 1547 1554 1581 1585 1588 1620 1639 1652 1660 1716 1721 1725 1727 1729 1737 1767 1769 1787 1818 1822 1832 1833 1844 1860 1911 1917 1946 1953 1957 1991 2037 2038 2074 2119 2146 2149 2193 2225 2226 2256 2266 2275 2294 2324 2376 2436 2448 2451
4: 0 1 2 5
5: 0 1 2 4
6: 3 7 8 9 10 11 12 13 14 15 16 17 18 19 20 21 22
7: 6 14
8: 6 9 11 16 23 38 44 51 54 55 92 114 135 136 137 138 141 142 143 144 145 146 147 148 149 150 194 199 238 255 256 257 269 279 280 288 307 321 377 482 494 597 608 647 648 649 672 676 715 756 792 829 864 872 879 913 939 944 951 961 970 971 1124 1153 1158 1160 1161 1164 1176 1243 1291 1342 1423 1544 1652 1660 1671 1800 1827 1957 2013 2215 2216 2327 2413 2419 2462
9: 6 8 11 20 51 114 135 138 140 142 162 251 252 253 254 255 256 257 279 280 282 288 348 593 607 608 672 792 864 970 2034 2125 2215 2216 2344 2497
10: 6
11: 2 3 6 8 9 14 20 61 95 113 142 147 256 277 279 280 330 415 482 489 494 532 545 567 582 593 607 608 672 689 792 829 864 902 939 951 997 1160 1170 1342 1372 1544 1581 1713 1765 1957 2003 2013 2025 2034 2074 2113 2146 2216 2362
12: 6 415 608 1409 1581 1800
13: 6 1800
14: 3 6 7 11 18 20 55 578 1300
15: 6
16: 6 8 21 705 1178 1838 2347
17: 6 277 1409 1660 1723 1800 2013 2605
18: 6 14 41 67 109 135 149 161 170 214 226 227 233 257 266 277 287 288 303 315 330 452 531 532 537 567 608 672 689 698 706 709 712 792 823 829 878 885 896 938 939 941 997 1005 1019 1043 1123 1161 1163 1199 1260 1394 1581 1660 1703 1736 1800 1832 1863 1911 1953 1957 2013 2034 2038 2047 2074 2075 2250 2316 2327 2329 2401 2434 2458
19: 6 1660 1800
20: 3 6 9 11 14 97 139 677 1724 1810
21: 6 16 117 417 1071
22: 6 214 415 494 608 792 884 1409 1660 2034
23: 8 24 25 26 27 28 29 30 350 480 482
24: 23 25 26 27 29 30 350 480 481 482 616 617 647 648 649 651 652 1175 1176 1234 1287
25: 23 24 26 27 28 29 30 350 480 481 482 483 1865
26: 23 24 25 27 29 30 350 480 482
27: 23 24 25 26 29 30 410 480 481 482 483 647 648 649 650 651 652 1158 1160 1161 1163 1164 1165 1175 1176 1234 1291
28: 3 23 25 29 156 482 555 879 1026 1998
29: 23 24 25 26 27 28 30 436 480 482 483 686 879
30: 23 24 25 26 27 29 98 350 410 480 481 482 616 647 648 649 650 651 652 935 1175 1176 1234 1287 1991 2273
31: 32 33 34 35 36 37 38 39 40 291 2359
32: 31 34 36 37 61 65 775 776 777 778
33: 31 34 37 820 823
34: 31 32 33 36 1519 2359
35: 31 1009
36: 31 32 34 2113
37: 31 32 33
38: 8 31 137 205 209 236 375 380 411 413 424 534 552 683 746 852 892 955 1190 1221 1236 1340 1683 1754 1781 1788 1807 1853 1957 1966 2034 2141 2303 2347 2417 2542 2543
39: 31 1493 1940
40: 31
41: 18 588 605 751 1371 2372
42: 43 44 590 662 739 1843 1959
43: 42 51 312 676 873
44: 8 42 51 135 140 150 191 253 380 397 480 533 537 538 566 567 677 863 947 949 1139 1243 1244 1264 1265 1266 1379 1656 1657 1658 1659 1673 1736 1858 1897 2056 2215 2216 2650 2672
45: 46 47 48 1496 2291
46: 45 666 2291 2374
47: 45 1496 1497
48: 45 350 951 1520
49: 50 2703
50: 49 113 118 119 120 592 1125 1645
51: 8 9 43 44 68 114 121 135 137 142 150 492 533 535 538 540 798 895 970 971 1154 1243 1264 1266 1455 2215 2216 2331 2569 2640 2660
52: 3 53 54 55 56 57 58 59 60 61 62 63 64 65 66 67 68 1205 2149
53: 3 52 56 61 144 210 213 349 350 570 577 582 584 607 672 1171 1267 1818 2007 2013 2330 2471
54: 8 52 65 119 135 158 844 1005 1800 2012 2013 2216 2511
55: 8 14 52 93 97 98 161 438 572 580 582 659 673 674 682 683 709 710 711 713 829 834 836 869 885 913 938 939 941 1060 1064 1082 1099 1106 1123 1198 1264 1322 1350 1394 1547 1557 1581 1585 1588 1660 1717 1754 1788 1850 1860 1917 2002 2010 2013 2034 2074 2119 2281 2415 2520 2549 2568 2605 2659 2673
56: 52 53 57 61 66 111 144 203 210 213 242 245 254 275 300 349 395 438 527 552 577 584 594 607 608 642 661 672 679 770 872 879 939 983 1029 1044 1060 1076 1087 1106 1140 1171 1194 1205 1267 1308 1312 1414 1518 1544 1568 1574 1639 1647 1673 1752 1758 1799 1916 1946 1977 1985 2007 2013 2052 2076 2173 2245 2330 2352 2371 2372 2448 2475 2501 2593
57: 52 56 61 65 68 155 213 221 248 249 267 275 287 291 299 350 370 371 472 577 583 814 857 869 939 1111 1171 1260 1518 1519 1717 1847 1883 1897 1915 1985 2003 2028 2032 2045 2081 2131 2330 2340 2353 2380 2403 2414 2492
58: 52 111 376 709 2013
59: 52 184 189 415 1029 1057 1103 1884 2013
60: 52
61: 3 11 32 52 53 56 57 65 66 89 111 113 137 139 143 162 210 213 214 221 254 300 350 365 377 415 419 484 543 577 582 607 608 661 675 687 698 757 765 792 879 939 1029 1082 1103 1143 1171 1183 1205 1275 1298 1520 1521 1709 1884 1897 1934 1949 1985 2003 2007 2013 2062 2063 2064 2216 2235 2243 2440 2475 2528 2593
62: 52 66
63: 52 577 1103 1884 2013 2249
64: 52 279 280 309 439 567 579 582 660 744 758 834 885 938 939 940 1040 1043 1060 1103 1186 1372 1466 1469 1585 1588 1593 1620 1737 1833 1917 1953 2013 2059 2074 2149 2242 2250 2292 2316 2376 2439
65: 32 52 54 57 61 299 349 350 431 577 608 663 783 788 878 879 1121 1236 1275 1305 1574 1649 1651 1754 1762 2003 2013 2230 2279 2488 2698
66: 3 52 56 61 62 67 92 116 212 419 2408
67: 18 52 66 91 96 149 298 337 532 567 607 709 712 756 1060 1737 2013 2250
68: 51 52 57 376 577 869 1437 2013 2133 2134
69: 70 71 72 2600
70: 69 71 423 1117 2600
71: 69 70 72 423 1446 1586 1587 2660
72: 69 71 423 1117 1587 2600
73: 74 330
74: 73 104 377 760 823 1236 1588 1591 2652
75: 76 77 1722
76: 75 77 1722
77: 75 76 1722
78: 79 80 81 82 83 84 85 86 87 88 89 90 438 1019 1020 1244 2046 2366
79: 78
80: 78 662 790 1970
81: 78
82: 78 218 272 354 355 356 357 358 359 722 978 979 1289 1602 1672
83: 78 659 1704
84: 3 78 85 86 87 88 438 1019 1020 2366
85: 78 84 86 88 89 438 1017 1018 1019 1020 1244 1504 2046 2366
86: 78 84 85 87 88 89 438 1017 1018 1019 1020 1244
87: 78 84 86 88 89 438 1017 1018 1019 1020
88: 78 84 85 86 87 89 438 517 1017 1018 1019 1020 1504
89: 61 78 85 86 87 88 438 1017 1018 1019 1020 1439
90: 78 1086
91: 67 92 93 94 95 96 97 98 99 2304
92: 8 66 91 142 281 282 709 1039
93: 55 91 582 885 939 1211 1588 1737
94: 91 439
95: 11 91 162 236 1713 2240
96: 67 91 567 1069 1495 1545 1674 1833 2013 2074 2250
97: 20 55 91 98 106 107 133 318 577 580 682 713 831 939 1064 1082 1099 1198 1322 1469 1519 1715 1754 2001 2002 2034 2074 2278 2345 2609
98: 30 55 91 97 107 251 403 616 1064 1082 1099 1124 1198 1394 1466 1850 2002 2074 2345 2346 2393
99: 91 756 1123 2250
100: 101
101: 100 1627
102: 103
103: 102
104: 74 105 106 107
105: 104 106 107
106: 97 104 105 107 144 217 238 551 592 781 834 979 1161 1163 1233 1298 1480 1513 1672 1674 1765 1822 1824 2173 2267 2407 2448 2639
107: 97 98 104 105 106 212 238 330 537 551 781 834 844 1161 1163 1263 1298 1419 1472 1473 1479 1480 1513 1672 1765 1788 1822 1824 2105 2267 2268 2407 2579 2639
108: 109 110 111 112 435
109: 18 108 110 111 112 298 433 434 435 436 437 438
110: 108 109 111 112 433 435 438
111: 56 58 61 108 109 110 112 433 435 438 1956
112: 108 109 110 111 434 435 438 2427
113: 11 50 61 114 115 116 117 118 119 120 253 2013 2216
114: 8 9 51 113 135 136 137 138 139 140 142 147 148 194 257 279 280 282 283 458 482 593 607 608 792 864 970 1233 1243 1342 1613 1788 1800 2013 2034 2074 2215 2485 2496
115: 113 196 389 390 394 395 396 397 398 399 400 404 405 406 410 412 763 781 944 1787 1817 2475
116: 66 113 213 377 577 608 765 1183 1884 1922 2003 2660
117: 21 113 215 275 377 864 912 2003 2278
118: 50 113 249
119: 50 54 113 120 2591
120: 50 113 119
121: 51 122 291 301 676 682 1525 2495
122: 121
123: 124 125 126 127 128
124: 123 190 395 588 594 1238
125: 123
126: 123
127: 123
128: 123 139 166 167 437 552 562 608 679 755 960 1118 1325 1377 1526 1610 1673 1872 1982 2153 2223 2347 2350 2417 2445 2458
129: 130 131 132 133 134 683 913 2034
130: 129 2112 2374 2660
131: 129 1600 1601
132: 129 133 134 1206 1911
133: 97 129 132 134 508 532 913 1206 1467 1474 1660 1998 2034 2066 2230 2605 2692
134: 129 132 133 941 1467 1695 2038 2082 2692
135: 8 9 18 44 51 54 114 137 140 142 150 178 313 399 492 533 535 537 538 540 588 798 836 879 970 971 1105 1139 1243 1262 1264 1265 1266 1273 1417 1418 1419 1420 1834 2215 2216 2259 2660 2672
136: 8 114 137 139 970 971
137: 3 8 38 51 61 114 135 136 139 142 277 413 523 552 561 572 683 705 834 855 970 971 1072 1154 1254 1540 1665 1673 1721 1736 1769 1916 1922 2145 2155 2236 2259 2279 2347 2378 2419 2568 2605
138: 8 9 114 257 672 1264 2013
139: 20 61 114 128 136 137 823 970 1082
140: 9 44 114 135 342 344 555 2215 2216
141: 8 148 194 195 196 971
142: 8 9 11 51 92 114 135 137 147 162 199 246 252 253 254 255 257 258 259 260 261 262 263 288 315 592 859 872 913 944 1236 1313 1342 2034 2216 2497
143: 8 61 528 1458 2584
144: 8 53 56 106 213 254 275 298 312 377 522 553 873 874 975 1063 1066 1111 1271 1310 1551 1707 1708 1709 1710 1711 1712 1949 2347
145: 8 541 2216
146: 8
147: 8 11 114 142 258 491
148: 8 114 141 194 195 196 895 971 1714 2269
149: 8 18 67 236 257 672
150: 8 44 51 135 253 291 533 537 683 1206 1264 1265 1266 1657 1863 1865 2059 2160 2216
151: 152 253
152: 3 151 253 471 1764
153: 154 155 156 157
154: 153 250 285 288 289 290 738 967 1218 1799 2013 2300
155: 57 153 248 315 424 945 946 1183 1847 2263
156: 28 153 291 438 792 1227 2034 2144 2238 2627
157: 153 423 572 1163 1941 2123 2230
158: 54 588
159: 160 1347 1433
160: 159 1433
161: 3 18 55 162
162: 3 9 61 95 142 161 501 502 503 504 505 506 507 508 509 510 511 512 513 515 516 621 710 855 1035 1072 1206 1207 1209 1213 1244 1665 1679 1680 1681 1682 1807 1872 1894 2264 2413 2568
163: 164 165 218 358 631 634 878 1198 1242 1269
164: 163 165 218 357 358 633 635 878 1239 1240 1268
165: 163 164 1239 1242
166: 128 167 2047
167: 128 166 212 989 1012 1183 1373 1374 1375 1376 1377 1378 1379 1380 1381 1382 1383 1384 1385 1386 1387
168: 169 873 1905
169: 168 436 1721
170: 18 1515
171: 172 173 964 1752
172: 171 2488
173: 171 2612
174: 175 176 177 178 2078
175: 174
176: 174
177: 174 2078
178: 135 174 457 480 482 715
179: 180 1494
180: 179
181: 182 183 184 185 186 187 188 189 190 191 426 432
182: 181 183 184 185 186 187 188 189 190 191 426 427 432
183: 181 182 184 185 186 187 188 189 190 191 425 426 427 432 701 895 1273 1333 1334 1335 1336 1337 1338 1750
184: 59 181 182 183 185 186 187 188 189 190 191 242 425 426 427 432 1182 1337 1482 1499 1500 1501 1502 1750
185: 181 182 183 184 186 187 188 189 190 191 425 426 432 1182 1551 1552
186: 181 182 183 184 185 187 189 190 191 426 432
187: 181 182 183 184 185 186 188 189 190 191 425 426 427 431 432 1282
188: 181 182 183 184 185 187 189 190 191 406 425 426 429 432
189: 59 181 182 183 184 185 186 187 188 190 191 425 426 427 432 1182
190: 124 181 182 183 184 185 186 187 188 189 191 425 426 432 1274
191: 44 181 182 183 184 185 186 187 188 189 190 426 427 432 630
192: 193
193: 192 1593
194: 8 114 141 148 195 196 397 971
195: 141 148 194 1008 1009 1010 1519 1957
196: 3 115 141 148 194 395 397 399 404 405 552 997
197: 198 606
198: 197 389 392 402 403 406 408 409 411 412 440 678 861 943 1780
199: 8 142 200 1291 2074
200: 199 1291
201: 202 362
202: 201
203: 56 204 205 241 1011 2051 2099 2257 2426 2614 2690
204: 203 239 241 254 640 641 771 772 773 774 824 867 868 960 1011 1047 1190 1292 1330 1388 2051 2099 2216 2257 2415 2660
205: 38 203 298 381 466 552 649 752 852 929 974 1111 1284 1673 1982 2019 2347 2488
206: 207 208 209
207: 206 301 1767 2419
208: 206 231 252 315 646 719 724 726 728 895 960 1060 1527 1544 2372
209: 38 206 1235
210: 53 56 61 211 212 213 214 215 216
211: 210
212: 66 107 167 210 214 215 353 864 939 1071 1072 1073 1171 1236 1517 1959 2223 2278 2542 2582 2598 2606 2660
213: 53 56 57 61 116 144 210 249 378 419 484 485 495 656 657 658 660 664 665 666 667 668 669 744 780 824 1099 1169 1170 1171 1172 1173
214: 18 22 61 210 212 215 277 285 298 377 994 1261 1695 1696 1697
215: 117 210 212 214 295 337 994 1696 1903
216: 210 1640 1641 1875 2055
217: 106 218 219 220
218: 82 163 164 217 219 220 272 289 354 356 357 358 689 698 722 979 1197 1269 1289 1459 2239
219: 217 218 220 272 289 357 358 633 1087 1099 1196 1240 1241 1268 1269 1289 1396 1633 2306 2518
220: 217 218 219 271 272 289 354 355 356 357 358 359 979 1197 1198 1240 1241 1268 1459 1602 2306
221: 57 61 1447
222: 223 270 914 915 1435 1436 1437 2379 2380
223: 222 914 915 1434 1435 1436 1437
224: 225 277
225: 224 2111
226: 3 18 227 228 229 230 231 232 233 234 235 236 237 238 239 240 241 447 1190
227: 18 226 228 230 231 233 235 237 238 239 240 241 443 444 445 446 447 448 518 1190 1191
228: 226 227 230 231 232 233 235 239 240 241 518 1190
229: 226 230 231 232 233 238 239 240 241 444 447 518 1190
230: 226 227 228 229 231 232 233 238 239 240 241 444 447 637 638 1191 1192
231: 208 226 227 228 229 230 232 233 235 237 238 239 240 241 444 446 447 518 639 727 1190 1191 1192
232: 226 228 229 230 231 233 235 237 238 239 240 241 444 447 975 1190
233: 18 226 227 228 229 230 231 232 235 237 238 239 240 241 447 518 637 1190 1191 1192
234: 226 365 614 1106 1520 1521
235: 226 227 228 231 232 233 238 239 240 241 1170 1190 1191
236: 38 95 149 226 241 280 383 459 517 532 578 719 848 913 954 1044 1094 1151 1163 1206 1217 1236 1244 1354 1547 1568 1581 1664 1736 1741 1872 1948 1962 2013 2036 2080 2250 2294 2461 2480 2488
237: 226 227 231 232 233 238 239 240 241 444 447 456 518 639 1190 1191
238: 8 106 107 226 227 229 230 231 232 233 235 237 239 240 241 444 447 518 1190 1191 1192
239: 204 226 227 228 229 230 231 232 233 235 237 238 240 241 444 447 518 1071 1191 1192 2363 2364 2365
240: 226 227 228 229 230 231 232 233 235 237 238 239 241 444 1190 1191 1192
241: 203 204 226 227 228 229 230 231 232 233 235 236 237 238 239 240 444 446 447 518 1190 1192
242: 56 184 243 244 245 1565
243: 242 244 245 1046 1311 2172
244: 242 243 245 1046
245: 56 242 243 244 1046
246: 142 247
247: 246
248: 57 155 249 250 847
249: 57 118 213 248 253 337 351 352 353 370 472 577 583 726 1002 1235 1261 1299 1538 1838 1847 1882 1902 1949 2028 2045 2067 2131 2216 2319 2353
250: 154 248 303 363 364 365 366 367 368 369 699 781 1234 1423 1831 1873 2643 2656
251: 9 98 892
252: 9 142 208 254 257 280 281 282 283 518 778 949 1177 1190 1613 2113 2215 2216
253: 9 44 113 142 150 151 152 249 402 471 1763 1764 1765 2215 2216 2634
254: 9 56 61 142 144 204 252 257 636 1263 1377 1431 1758 1944 1945 2215 2216
255: 8 9 142 970 2140 2205 2206
256: 8 9 11 315 319 321 831 2358
257: 3 8 9 18 114 138 142 149 252 254 279 280 281 282 283 298 361 380 435 1079 1613 1809 1944 2113 2215 2216 2405 2601
258: 142 147 489 490 491 492 493 717 1598 1721 1744 2039
259: 142 859
260: 142 689 697 698 1197 2657
261: 142 1704
262: 142
263: 142 997 2013 2469
264: 265 266 2404 2636
265: 264 277 682 709 1409 1660 1800 2013 2696
266: 3 18 264 1003 1350
267: 57 268
268: 267
269: 8 610 1121 1243
270: 3 222 671 2460
271: 220 272 357 1196 1198 1240 1241 1268 1269 2306
272: 82 218 219 220 271 289 356 357 358 689 698 979 1195 1196 1197 1198 1269 1289 1672 2239
273: 274
274: 273 590
275: 56 57 117 144 276 277 278 492 627 1519 1924
276: 275
277: 3 11 17 18 137 214 224 265 275 437 582 816 817 818 819 820 821 822
278: 275 1665 2451
279: 8 9 11 64 114 257 280 281 282 283 1613
280: 3 8 9 11 64 114 236 252 257 279 281 282 283 579 1613 1614
281: 92 252 257 279 280 282 283 1613
282: 3 9 92 114 252 257 279 280 281 283 532 1613
283: 3 114 252 257 279 280 281 282 532 1613
284: 285
285: 154 214 284 377 608 960 1911 2014
286: 287
287: 18 57 286 590 657 1005 1260 1261
288: 8 9 18 142 154 417 849 873
289: 154 218 219 220 272 355 356 357 358 814 1093 1241 1289 1672 2239 2306 2350 2392
290: 154 761 762 1025 1028 1113 2463
291: 31 57 121 150 156 292 293 294 295 296 297 298 299 300 301 302 303 431 508 676 1844 2672
292: 291 297 299 301 1221 2279
293: 291 294 299 301 302 508 577 962 963 965 966 1064 2502 2692
294: 291 293 301 302 431 962 964 965 966 1044
295: 215 291 792 2003 2013 2347 2399
296: 291 299 301 851 896
297: 291 292 299 301 302 793 1966 2279 2384 2421
298: 67 109 144 205 214 257 291 399 413 431 436 517 537 552 631 780 871 895 907 924 929 969 1084 1111 1118 1132 1137 1172 1177 1227 1254 1284 1286 1319 1330 1493 1766 1788 1791 1818 1863 2005 2019 2165 2166 2167 2168 2169 2170 2171 2172 2173 2279 2475 2535 2598 2606 2660 2695
299: 57 65 291 292 293 296 297 301 302 350 616 617 1005 1673 2279 2347 2672
300: 56 61 291 301 350 2153
301: 121 207 291 292 293 294 296 297 299 300 302 455 532 620 683 699 1045 1064 1085 1262 1312 2231 2402 2529 2581 2695
302: 291 293 294 297 299 301
303: 18 250 291 2103 2495 2602 2699 2700 2701
304: 305 306 307 308 456 457 458 463 545 546 953 954 1079
305: 304 306 307 308 456 457 458 459 460 461 462 463 464 465 953 954 1558
306: 304 305 307 308 458 1968 1969
307: 8 304 305 306 456 457 458 465 544 545 546 929 953 954 1079
308: 304 305 306 456 457 458 463 465 544 545 546 929 953 954 1079
309: 64 310 311 312
310: 309
311: 309
312: 43 144 309 422 1847
313: 135 314 1522
314: 313 896 987
315: 18 142 155 208 256 316 317 318 319 320 321 1236 2357
316: 315 556 557 558
317: 2 315 339 381 552 782 783 895 912 913 1325 1453 1526 1574 1673 1736 1962 1981 2048 2437
318: 97 315 552 683 782 941 1094 1198 1236 1322 1519 1631 1671 1769 1800 2119 2257
319: 256 315 2357
320: 315 330 530 567
321: 8 256 315 2357
322: 323 881 2334
323: 322 634 1155 1199 1242 2334
324: 325 326 327 328 329 330 331 332 718
325: 324 327 331 332
326: 324 327 328 329 330 332 961
327: 324 325 326 328 329 330 331 332 2651
328: 324 326 327 329 330 332 1901
329: 324 326 327 328 330 331 332 418 1165 1788 2089 2658
330: 3 11 18 73 107 320 324 326 327 328 329 331 332 718 783 1165 1304 1788
331: 324 325 327 329 330 332 1165 1788
332: 324 325 326 327 328 329 330 331 2440
333: 334 1372
334: 333 588
335: 336 337 338 339
336: 335 338 339 2329
337: 2 67 215 249 335 1839 1982 2031 2480
338: 335 336 339 2329
339: 317 335 336 338 2329
340: 341 342 343 344 345 346 347 348 2061
341: 340 342 343 344 345 346 347 348
342: 140 340 341 345 346 988 989 990
343: 340 341 344 345 346 348 1030
344: 140 340 341 343 345 346 347 348 1512 2052 2690
345: 340 341 342 343 344 347 348 522 1512 1720 2052
346: 340 341 342 343 344 347 677 1157 1512
347: 340 341 344 345 346
348: 9 340 341 343 344 345 1030 1217 1512
349: 53 56 65 350
350: 23 24 25 26 30 48 53 57 61 65 299 300 349 379 483 577 664 715 783 788 811 864 878 879 1121 1236 1275 1305 1467 1468 1649 1937 1985 2230 2417 2572 2573 2574 2616
351: 249 352 1850 1882
352: 249 351 1882
353: 212 249
354: 82 218 220 355 356 358 359 722 978 979 1289 1602 1672
355: 82 220 289 354 356 358 359 722 978 979 1289 1672
356: 82 218 220 272 289 354 355 357 358 359 722 978 979 1289 1602 1620 1672
357: 82 164 218 219 220 271 272 289 356 358 359 689 692 697 698 722 979 1087 1093 1217 1241 1268 1269 1289 1672 1870 2036 2350 2476
358: 82 163 164 218 219 220 272 289 354 355 356 357 633 635 689 698 1197 1198 1268 1269 1289 1459 1602 1672 1786 2023 2214 2392
359: 82 220 354 355 356 357 978 979 1602 1672
360: 1 2
361: 257 362
362: 201 361 890 1060
363: 250 365 366 367 369 911 1148 1976 2445
364: 250 368 839 840 873 957 1683 2196
365: 61 234 250 363 367
366: 250 363 367 369 1976 2445
367: 250 363 365 366 369 1240 1582 1583 1584 1976 2124 2445
368: 250 364 2611
369: 250 363 366 367 1976 2124 2445
370: 57 249 371 372
371: 57 370 438 938 1111 1788 1847 1883
372: 370
373: 374
374: 373 405 1400
375: 38 376 377 378 379 380 811
376: 58 68 375 466 552 706 847 848 857 879 905 1048 1096 1121 1236 1244 1273 1342 1606 1631 1785 1938 1982 1996 2061 2075 2307 2311 2347 2417
377: 8 61 74 116 117 144 214 285 375 731 834 895 1071 1350 1508 1521 1551 1764 1773 1774 1775 1776 1777 2278 2583 2660
378: 213 375 415 654 1258 1965 2619
379: 350 375 811 812 2480
380: 38 44 257 375 780 1982 2327
381: 205 317 382 1087
382: 381 602 924 1113 1363 1664 1859
383: 236 384 1674
384: 383 938 1178 2048 2250 2316
385: 386
386: 385
387: 388
388: 387 661 1631 2152
389: 115 198 390 391 392 393 394 395 396 397 398 399 400 401 402 403 404 405 406 407 408 409 410 411 412 721 805 809 943 1780
390: 115 389 395 399 400 404 405 406 763 1503
391: 389 402 406 407 411 412 688 720 721 804 805 806 807 808 809 810 1479
392: 198 389 403 406 408 409 411 943 1780 2061
393: 389 401
394: 115 389 395 399 404 2462
395: 56 115 124 196 389 390 394 396 397 398 399 400 404 405 406 407 410 412 443 636 763 819 1355
396: 115 389 395 399 404 406 410 1457
397: 44 115 194 196 389 395 399 400 405 412 1265
398: 115 389 395 399 404 406 410
399: 115 135 196 298 389 390 394 395 396 397 398 400 404 405 406 407 410 412 763 1623 1650 1651 2483
400: 115 389 390 395 397 399 404 406 407 410
401: 389 393 897 1144 1145 1147 1148
402: 198 253 389 391 403 406 408 409 411 412 685 688 719 721 805 806 808 809 810 861 943 1780 1866 2013 2061
403: 98 198 389 392 402 406 407 408 409 411 412 687 710 809 861 943 975 1198 1474 1624 1780 1863 2013 2074 2277
404: 115 196 389 390 394 395 396 398 399 400 405 406 412 763 2317 2483
405: 115 196 374 389 390 395 397 399 404 406 407 410 412 781 1817 1873
406: 115 188 198 389 390 391 392 395 396 398 399 400 402 403 404 405 407 408 409 411 412 685 688 721 763 810 943 1612 1780
407: 389 391 395 399 400 403 405 406 409 721 2377
408: 198 389 392 402 403 406 409 411 412 687 943 1623 1780
409: 198 389 392 402 403 406 407 408 411 412 943 1623 1780
410: 27 30 115 389 395 396 398 399 400 405 412 593 1234 1254 1560 2109
411: 38 198 389 391 392 402 403 406 408 409 412 688 720 721 805 808 809 810 878 943 1479 1623 1780 2061 2537
412: 115 198 389 391 395 397 399 402 403 404 405 406 408 409 410 411 688 721 808 809 943 1479 1780
413: 38 137 298 414 552
414: 413 1206 1351 1795 1863
415: 3 11 12 22 59 61 378 416 417 418 419 420 421 422
416: 415 607
417: 21 288 415
418: 329 415 1163 1254 1261 1312
419: 61 66 213 415 484 485 486 487 488 654 2003 2613
420: 415 570 571 1141 1724 1818 1916 2045
421: 415 484
422: 312 415 2118
423: 70 71 72 157
424: 38 155 1757 1905
425: 183 184 185 187 188 189 190 426 427 428 429 430 431 432
426: 181 182 183 184 185 186 187 188 189 190 191 425 427 428 429 432 1181 1182 1183 1184 1185
427: 182 183 184 187 189 191 425 426 432 630
428: 425 426
429: 188 425 426 431
430: 425 2460
431: 65 187 291 294 298 425 429 445 866 895 1427
432: 181 182 183 184 185 186 187 188 189 190 191 425 426 427 475 2680 2681 2682
433: 109 110 111 435
434: 109 112 438 1019 1029
435: 108 109 110 111 112 257 433 438
436: 29 109 169 298 531 554 608 659 884 911 1170 1227 1769 1959 1985 2128 2198 2278 2403 2660 2688 2694
437: 109 128 277 1660
438: 3 55 56 78 84 85 86 87 88 89 109 110 111 112 156 371 434 435 819 1017 1018 1019 1020 1244 1504 2366
439: 3 64 94 440 441 442
440: 198 439 532 1495 1800 1862 2013
441: 3 439 1064 1526 2318 2450
442: 439
443: 227 395
444: 227 229 230 231 232 237 238 239 240 241 447 1190 1192
445: 227 431 2083 2483
446: 227 231 241 518 1190
447: 226 227 229 230 231 232 233 237 238 239 241 444 1190 1191
448: 227
449: 450
450: 449
451: 452 453
452: 18 451 453 2108
453: 451 452
454: 455
455: 301 454 860 2060 2061 2616
456: 237 304 305 307 308 457 458 459 460 461 462 463 464 545 546 929 930 954 1254
457: 178 304 305 307 308 456 458 459 461 462 464 465 545 546 721 929 954 1558
458: 3 114 304 305 306 307 308 456 457 459 460 461 462 463 464 465 545 546 929 953 954 1079 1558
459: 236 305 456 457 458 461 462 463 464 1558 1559
460: 305 456 458 461 463 464 1558
461: 305 456 457 458 459 460 463 464 1254 1558 2117
462: 305 456 457 458 459 463 464 1254 1558 2184
463: 304 305 308 456 458 459 460 461 462 464 953 1079 1558
464: 305 456 457 458 459 460 461 462 463 1254
465: 305 307 308 457 458 544 545 546 954 1079 1140 2459
466: 205 376 467 468 469 470
467: 466 719 986 1206 1312 1568 1605 1639 1673 2121
468: 466
469: 466 1305 1716 1981 2253
470: 466 479 902 927 951 1369 2264
471: 152 253
472: 57 249 473 474 1183
473: 472 1140
474: 472 2216 2329
475: 432 476 477
476: 475 477 1665
477: 475 476
478: 479
479: 470 478 951
480: 23 24 25 26 27 29 30 44 178 481 482 483
481: 24 25 27 30 480 482 483 1158 1159 1160 1161 1163 1291
482: 8 11 23 24 25 26 27 28 29 30 114 178 480 481 483 2325
483: 25 27 29 350 480 481 482 1158 1160 1161 1163 1164 1291
484: 61 213 419 421 485 486 487 488 2388
485: 213 419 484 488
486: 419 484 2235 2475
487: 419 484 488
488: 419 484 485 487 628
489: 11 258 578
490: 258 493 528 1402
491: 147 258
492: 51 135 258 275 1660 2083 2670
493: 258 490 1402
494: 8 11 22 495 496 497 2507
495: 213 494 607 608 864 919 1106 1865 1949 2034 2036 2146 2278 2294
496: 494 2697
497: 494 2457
498: 499
499: 498 977 1286 1957
500: 501 502 503 504 505 506 507 508 509 510 511 512 513 514 515 516 517 1127 1206 1213 2312 2375 2533
501: 162 500 504 513 1206 1208
502: 162 500 512 513 1206 1515
503: 162 500 504 505 507 508 509 511 512 513 1127 1206 1213 1742 2312 2533
504: 162 500 501 503 506 507 511 512 513 515 1206 1742
505: 162 500 503 506 507 508 513 516 1206 1213 1830 2495 2533
506: 162 500 504 505 507 508 511 513 1206
507: 162 500 503 504 505 506 509 511 513 516 1206 1742 2312 2533
508: 133 162 291 293 500 503 505 506 513 1206 1213 1830 1841 2312 2463 2495
509: 162 500 503 507 510 511 1206 1212 1213 1679 1680 2312 2533
510: 162 500 509 1206 1213
511: 162 500 503 504 506 507 509 512 515 1206 1213 1680 1742 2312
512: 3 162 500 502 503 504 511 1206 1209 1895
513: 162 500 501 502 503 504 505 506 507 508 516 1206 1207 1208 1213 2254
514: 500 1306 1579
515: 162 500 504 511 1213 1515 1742 1855
516: 162 500 505 507 513 1206 2533
517: 88 236 298 500 580 907 1064 1493 1791 2005 2172 2279 2582 2610 2660
518: 227 228 229 231 233 237 238 239 241 252 446 787 849 1190 1472
519: 520
520: 519
521: 522
522: 144 345 521 608 864 884 1005 1342 1409 1660 1800 1957 2013 2113
523: 137
524: 525 526
525: 524
526: 524
527: 3 56 528 529 530 531 532 1575
528: 143 490 527 532 568 569 1858
529: 527 531 532 1402
530: 320 527 677 981 1065 1112 1277 2183
531: 18 436 527 529 532 2284 2285
532: 11 18 67 133 236 282 283 301 440 527 528 529 531 567 568 578 641 644 939 1331 1350 1757 1900 2349 2490
533: 44 51 135 150 534 535 536 537 538 539 540 2065 2418
534: 38 533 2349 2520
535: 3 51 135 533 537 538 540
536: 533
537: 18 44 107 135 150 298 533 535 538 540 728 945 953 1636 2044 2233 2352 2420 2649
538: 44 51 135 533 535 537 540
539: 533
540: 51 135 533 535 537 538
541: 145
542: 543
543: 61 542 1553 1554
544: 307 308 465 545 546
545: 11 304 307 308 456 457 458 465 544 546 952 953 954 1079 2339 2462
546: 304 307 308 456 457 458 465 544 545 953 954 1079 1105
547: 3 548 549 550 551 1725 2013
548: 547 549 550 551 905 920 921 1818 2256 2370
549: 547 548 550 551 921 1818 2256
550: 3 547 548 549 551 920 921 1402 1818 2255 2256 2370
551: 3 106 107 547 548 549 550 921 1440 2255 2256 2370
552: 38 56 128 137 196 205 298 317 318 376 413 553 554 555 911 2013
553: 144 552 828 911 1440 1981 1982 2014 2347
554: 436 552 780 911 987 1227 1544 1677 1818 1949 1982 1985 2034 2103 2660
555: 28 140 552 974 1769 2138 2347
556: 316 557
557: 316 556 2132
558: 316 1401
559: 560 1203
560: 559 1564 2380
561: 137
562: 128 563 564 565 1253
563: 562
564: 562 1129
565: 562
566: 44 567 1863
567: 11 18 44 64 67 96 320 532 566 582 709 885 913 1009 1057 1265 1469 1470 1547 1862 1863 2048
568: 528 532
569: 528 1058 1406 1407 2602
570: 53 420 571 572 573 574 907
571: 420 570 573 574
572: 55 137 157 570 573 580 1060 1721 1724 2155
573: 570 571 572 907
574: 570 571 907
575: 576
576: 575 636 2092
577: 53 56 57 61 63 65 68 97 116 249 293 350 578 579 580 581 582 583
578: 14 236 489 532 577 607 961 1284 1415 2146 2448
579: 64 280 577 582 834 885 938 939 951 1264 1466 1467 1588 1737 1762 1787 1833 1917 1933 2002 2013 2146 2149 2250
580: 55 97 517 572 577 682 711 713 829 830 831 878 941 1042 1060 1124 1211 1236 1264 1322 1604 1862 1863 1985 1995 2013 2048 2272 2406 2448
581: 577 924 1574
582: 3 11 53 55 61 64 93 277 567 577 579 682 834 879 885 913 1005 1211 1264 1466 1469 1547 1575 1585 1740 1876 1917 1918 1957 2013 2074 2191 2192 2520 2568 2569 2673 2679
583: 57 249 577 857 1111 1441 1518 1717 1883 2028 2032 2131 2414
584: 53 56 1076
585: 586 587
586: 585 587
587: 585 586
588: 41 124 135 158 334 589 590 591 592 593 594 595 596 597 598 599 600 601 602 603 604 605
589: 588 592 593 595 596 597 598 599 600 601 602 605 1021
590: 0 42 274 287 588 656 657 658 659 660 661 662 663 664 665 666 667 668 669 670 671 739 740 744 746 748 750 795 796 797 798 799 800 801 802 803 839 840 957 1683 1723 2374 2468 2519
591: 588 605
592: 50 106 142 588 589 593 595 596 597 598 599 600 601 602 605 1021 1160 1316
593: 9 11 114 410 588 589 592 595 596 597 598 599 601 602 605 813 1316 1560 1561 2391
594: 56 124 588 938 977 1653 1786
595: 588 589 592 593 596 597 598 599 600 601 602 605 1021 1316 1676 1873 2596
596: 588 589 592 593 595 597 598 599 600 601 602 605 1021 1316 1419
597: 8 588 589 592 593 595 596 598 599 600 601 602 605 1021 1316
598: 588 589 592 593 595 596 597 599 600 601 602 605 1021 1316
599: 588 589 592 593 595 596 597 598 600 601 602 605 813 1021
600: 588 589 592 595 596 597 598 599 601 602 605 1021 1314
601: 588 589 592 593 595 596 597 598 599 600 602 605 1017 1021 1316 1560 1561 2391
602: 382 588 589 592 593 595 596 597 598 599 600 601 605 664 1021 1316 1688 2136 2137 2138
603: 588 2236
604: 588 798 984 985 1083
605: 41 588 589 591 592 593 595 596 597 598 599 600 601 602 705 1021 1057 1262 1316 1560 1561 1571 1772 1963 2238 2391 2464 2465 2466 2467
606: 197
607: 3 9 11 53 56 61 67 114 416 495 578 608 609
608: 8 9 11 12 18 22 56 61 65 114 116 128 285 436 495 522 607 730 731 732 733 734 735 736 737 738
609: 607
610: 269 2149
611: 612 613 614 615 2263
612: 611 613 614 615 1106 2055
613: 611 612 614 615 1064 1106
614: 234 611 612 613 615 1064 1106 2011
615: 611 612 613 614 1064 1106 2198
616: 24 30 98 299 617
617: 24 299 616
618: 619
619: 618 716 871 1513 2107 2571
620: 301 621 622 623 624 625 626 1033 1742 2516
621: 162 620 623 624 625 626 1033 1036
622: 620 1531
623: 620 621
624: 620 621 2633
625: 620 621 1035 1531
626: 620 621 2078 2175 2633
627: 275 628 629 1244 2311
628: 488 627 846 1343 1794 1887 2130
629: 627
630: 191 427
631: 163 298 632 633 634 635 878 1239 1242
632: 631 634 635 878 1239 1240 1241 1242
633: 164 219 358 631 634 878 1239 1242 1289 2239
634: 163 323 631 632 633 635 878 1155 1239 1242 1551 1585 1766
635: 164 358 631 632 634 878 1241 1242 1269 1551
636: 254 395 576 2193
637: 230 233 638 639
638: 230 637 639 1104
639: 231 237 637 638 1191
640: 204 641
641: 204 532 640
642: 56 643 644 645
643: 642
644: 532 642 1086 1143 1832 2294
645: 642 1086 1515 2352
646: 208
647: 8 24 27 30 648 649 650 651 652
648: 8 24 27 30 647 649 650 651 652 1175 1234
649: 8 24 27 30 205 647 648 650 651 652 852 895 975 977 1176 1234 1285 1286 1287
650: 27 30 647 648 649 651 652 1175 1234
651: 24 27 30 647 648 649 650 652 1175 1234 1287
652: 24 27 30 647 648 649 650 651 1175 1176 1190 1234 1287 2217
653: 654 655 1652
654: 378 419 653 655 1105 2698
655: 653 654 913 1652
656: 213 590 657 658 659 660 661 662 663 664 665 666 667 668 669 670 681 739 744 750
657: 213 287 590 656 658 659 660 661 662 663 664 665 666 667 668 669 670 692 706 739 744 746 748 750 795 796 798 1004 1058 1059 1260 1367 1723 1832 1833 2374
658: 213 590 656 657 660 661 663 664 665 666 670 739 744 746 750
659: 55 83 436 590 656 657 660 661 662 663 664 665 666 667 669 670 678 739 744 745 746 750 872 921 1069 1305 1598 1752 1933 2515 2546 2552 2553 2554 2555 2556 2557 2558 2559 2560 2561 2562 2563 2564 2565 2566 2567
660: 64 213 590 656 657 658 659 661 662 663 664 665 666 667 668 669 670 739 744 750 1102 1723 2374
661: 3 56 61 388 590 656 657 658 659 660 662 663 664 665 666 667 668 669 670 739 744 748 750 795 798 1058 1297 1298 1738 2569
662: 0 42 80 590 656 657 659 660 661 663 664 665 666 667 669 670 692 739 740 744 745 749 750 757 777 1322 1323 1324 1325 1326
663: 65 590 656 657 658 659 660 661 662 664 665 666 667 668 669 670 739 744 746 750 1348 1349 2121
664: 213 350 590 602 656 657 658 659 660 661 662 663 665 666 667 668 669 670 739 744 746 748 750 2585 2586 2587 2588 2673
665: 213 590 656 657 658 659 660 661 662 663 664 666 667 668 669 670 681 739 744 748 750
666: 46 213 590 656 657 658 659 660 661 662 663 664 665 667 668 669 670 686 739 744 746 748 750 1102 1131 1269
667: 213 590 656 657 659 660 661 662 663 664 665 666 670 739 744 746 750
668: 213 590 656 657 660 661 663 664 665 666 670 739 744 746 750
669: 213 590 656 657 659 660 661 662 663 664 665 666 670 739 744 750
670: 590 656 657 658 659 660 661 662 663 664 665 666 667 668 669 739 744 746 748 750 975 1138 1723 2374
671: 270 590 672 1833
672: 8 9 11 18 53 56 138 149 671 1243
673: 55
674: 55
675: 61
676: 3 8 43 121 291 677 678
677: 20 44 346 530 676 789 790 791 792 793 794 1403 2281 2529
678: 198 659 676
679: 56 128 680 682
680: 679 2257
681: 656 665
682: 3 55 97 121 265 580 582 679 683 684 1021 1211
683: 3 38 55 129 137 150 301 318 682 684 836 864 1021 2141
684: 682 683 1021 2383
685: 402 406 686 687 688
686: 29 666 685 1060 1863 2024 2025
687: 61 403 408 685 1042 2022 2422
688: 391 402 406 411 412 685 720 721 805 809 810 1479 2511 2678
689: 3 11 18 218 260 272 357 358 690 691 692 693 694 695 696 697 698 699
690: 689 699 1087
691: 689
692: 357 657 662 689 693 696
693: 689 692 698 699 1091 1092
694: 689 698
695: 689 895 1087 1092
696: 689 692 697 698 911 1955
697: 260 357 689 696 698 2195
698: 3 18 61 218 260 272 357 358 689 693 694 696 697 736 1093 1197 2195
699: 250 301 689 690 693 1091 1092 1093 2702
700: 701 702
701: 183 700 1054
702: 700
703: 704
704: 703 1902
705: 16 137 605 706
706: 18 376 657 705 864 992 1131 1227 1354 1829 2423
707: 708
708: 707 1237 1866 1997 2348
709: 3 18 55 58 67 92 265 567 710 711 712 713 714 1044 1064 2013 2419 2549
710: 55 162 403 709 712 1043 2013 2038
711: 55 580 709 713 829 1060 1198 1322 1603 1604
712: 3 18 67 709 710 819 1676 1801 2068 2069
713: 3 55 97 580 709 711 829 830 938 1199 1211 1322 1394 2013
714: 709 2013 2034
715: 3 8 178 350
716: 0 619 717 2495 2693
717: 258 716
718: 324 330
719: 0 208 236 402 467 720 721
720: 391 411 688 719 721 805 806 808 810 850 1479 1919 1920
721: 389 391 402 406 407 411 412 457 688 719 720 804 805 808 809 810
722: 82 218 354 355 356 357 723 1672
723: 722
724: 3 208 725 726 727 728 729
725: 724 728 1198
726: 208 249 724 727 728 729 1882
727: 231 724 726 728 1544
728: 208 537 724 725 726 727
729: 724 726
730: 608 2384
731: 377 608 792
732: 608
733: 608
734: 608
735: 608
736: 608 698 864 919 1017 1855 2214 2263
737: 608 1325
738: 154 608 895
739: 0 42 590 656 657 658 659 660 661 662 663 664 665 666 667 668 669 670 740 741 742 743 744 745 746 747 748 749 750
740: 590 662 739
741: 739
742: 739 760 873 979 1190 1208 1519 2113 2141 2173
743: 739 913
744: 64 213 590 656 657 658 659 660 661 662 663 664 665 666 667 668 669 670 739 746 748 750 752 796 992 1102 2374 2468
745: 659 662 739
746: 38 590 657 658 659 663 664 666 667 668 670 739 744
747: 739
748: 590 657 661 664 665 666 670 739 744
749: 662 739
750: 590 656 657 658 659 660 661 662 663 664 665 666 667 668 669 670 739 744 752 1102
751: 41 752 753 754 1341
752: 205 744 750 751
753: 751
754: 751 1341
755: 128
756: 8 67 99 757 758 759 760
757: 61 662 756 1199 1544 1850 2013 2105 2263
758: 64 756 759 760 2691
759: 756 758 760
760: 74 742 756 758 759
761: 290 762 1028 2463
762: 290 761 1025 1028 1113 2463
763: 115 390 395 399 404 406
764: 765
765: 61 116 764 826 1364 1365 1366
766: 767 768 769 836 2238
767: 766
768: 766 2121
769: 766 1155 1205
770: 56
771: 204 773 1178 2257
772: 204
773: 204 771 1617
774: 204 849
775: 32 1985
776: 32 895
777: 32 662
778: 32 252
779: 780
780: 213 298 380 554 779 947 948 949 950 2536 2537
781: 106 107 115 250 405 1006 1007
782: 317 318 2193
783: 65 317 330 350 784 785 786 787 788 1540
784: 783
785: 783 1325 2024
786: 783 1060
787: 518 783 1178 1206 1305 1673 1692
788: 65 350 783 1649 1665 1697 1891 1892 1893 2230
789: 677 790 791 792 793 794 1534 1536 1588 1592 2412
790: 80 677 789 791 792 793 794 818 980 981 982
791: 677 789 790 792
792: 8 9 11 18 22 61 114 156 295 677 731 789 790 791 793 794 1243 1684
793: 297 677 789 790 792 1619 2290
794: 677 789 790 792
795: 590 657 661
796: 590 657 744
797: 590 2326
798: 51 135 590 604 657 661 985 2522 2532
799: 590 1833
800: 590
801: 590 1648 1673 1946 2660
802: 590
803: 590
804: 391 721 1479
805: 389 391 402 411 688 720 721 806 808 810 1479
806: 391 402 720 805 808
807: 391
808: 391 402 411 412 720 721 805 806 809 810 850 1479
809: 389 391 402 403 411 412 688 721 808 810 943
810: 391 402 406 411 688 720 721 805 808 809 1474 1479
811: 350 375 379 812
812: 379 811 1998 2004 2479 2480
813: 593 599
814: 57 289 815
815: 814
816: 277 1371 2589
817: 277
818: 277 790
819: 277 395 438 712 1019 1029 1138 1339 1340 1347 1415 1660 1800 2371
820: 33 277 823
821: 277 939 1014 1064 1208
822: 277 1168 1415 2105
823: 18 33 74 139 820 886 1340 1632 1788 1809 1848 1849 1871 2569
824: 204 213
825: 826
826: 765 825 2631
827: 3 828
828: 553 827
829: 8 11 18 55 580 711 713 830 831 832 833 834 835 836 837 838 1322 1604
830: 580 713 829 1064 1322
831: 97 256 580 829 938 1957
832: 829
833: 829
834: 55 64 106 107 137 377 579 582 829 836 1200 1211 1482 1483 1484 1485 1486 1487 1488
835: 829 1322
836: 55 135 683 766 829 834 1487 1567 1622 2129 2462
837: 829
838: 829
839: 364 590 840 957 1683
840: 364 590 839 955 956 957 1683
841: 842
842: 841 935
843: 844
844: 3 54 107 843 1614
845: 846
846: 628 845
847: 3 248 376 848 849
848: 236 376 847 905 1186 1193 1222 1271 1272 1273 1274 1275 1276 1303 2660 2679
849: 288 518 774 847 1347 1496 1693 1757 1946 2059 2227 2369
850: 720 808
851: 296 852
852: 38 205 649 851 974 1111 1284 2019 2039 2327 2347
853: 854 855 856 1031
854: 853 855 856 958 959 960 1031
855: 137 162 853 854 856 859 959 960 1031 2033
856: 3 853 854 855 959 1031 1295 1354 1923
857: 57 376 583 858 859 1324
858: 857
859: 142 259 855 857 906 908 1302 1550 1876 1981 2192 2216 2407 2568 2653
860: 455
861: 198 402 403 862
862: 861 2338
863: 44
864: 8 9 11 114 117 212 350 495 522 683 706 736 865 866
865: 864 1645
866: 431 864
867: 204 868 869
868: 204 867 869 1508 1744
869: 55 57 68 867 868 878 1133 1350 1508 2077 2389 2583
870: 871
871: 298 619 870
872: 8 56 142 659
873: 43 144 168 288 364 742 874 875 876 877 878 879 880 881 882 883 884 2530 2531
874: 144 873
875: 873
876: 873
877: 873
878: 3 18 65 163 164 350 411 580 631 632 633 634 635 869 873 938 940 941 1022 1124 1239 1242 1466 2013
879: 3 8 28 29 56 61 65 135 350 376 582 873 1438 1439 2216
880: 873
881: 322 873 1069 1914
882: 873
883: 873
884: 22 436 522 873
885: 3 18 55 64 93 567 579 582 942 1394 1469 1495 1588 1917 1953 2074 2149 2250 2481 2520
886: 823 887 888 889
887: 886
888: 886
889: 886
890: 362
891: 892 893 894 1087
892: 38 251 891 893 894 1953 2502
893: 891 892 894
894: 891 892 893
895: 51 148 183 208 298 317 377 431 649 695 738 776 911 974 1111 1176 1205 1254 1330 1654 1734 1812 1982 2019 2217 2278 2347 2349 2471 2488 2535 2582 2660
896: 18 296 314 897 898 899
897: 401 896 1258
898: 896 899
899: 896 898
900: 901 902
901: 900 902 1362
902: 11 470 900 901 951
903: 904
904: 903 1302 1623
905: 376 548 848 2315
906: 859 907 908
907: 298 517 570 573 574 906 944
908: 859 906
909: 910 911
910: 909 933 1737
911: 363 436 552 553 554 696 895 909 1166 1167 1168 1565 2388 2392 2403
912: 117 317 913
913: 8 55 129 133 142 236 317 567 582 655 743 912 1288
914: 222 223 915 916 1435 1436
915: 222 223 914 1435 1436 2380 2570
916: 914 2083
917: 918 1205
918: 917 1103 2592
919: 495 736
920: 548 550 2256
921: 548 549 550 551 659 1264 1614 2013 2255 2512
922: 923 924 925 926
923: 922
924: 298 382 581 922
925: 922
926: 922
927: 470 928
928: 927
929: 205 298 307 308 456 457 458 954 976
930: 456 1236 2578
931: 932
932: 931 1718
933: 910 1737
934: 935 936
935: 30 842 934 1511
936: 934 1221 1837
937: 938 939 940 941 942
938: 3 18 55 64 371 384 579 594 713 831 878 937 940 941 942 1062
939: 3 8 11 18 55 56 57 61 64 93 97 212 532 579 821 937 994 1014 1060 1211 1695 1733 2013
940: 3 64 878 937 938 941
941: 3 18 55 134 318 580 878 937 938 940 942 1211 1472 1474
942: 885 937 938 941 1474
943: 198 389 392 402 403 406 408 409 411 412 809 1474 1623 1780
944: 8 115 142 907 1111
945: 155 537
946: 155 2291 2621
947: 44 780
948: 780
949: 44 252 780 1190
950: 780
951: 3 8 11 48 470 479 579 902 1124 1243 1371 1496 1497
952: 545
953: 304 305 307 308 458 463 537 545 546 954 1105 2339 2580
954: 236 304 305 307 308 456 457 458 465 545 546 929 953
955: 38 840 1398 1634 1649
956: 840 1683
957: 364 590 839 840 1928 2164
958: 854 959 960 1031
959: 854 855 856 958 960 1031
960: 128 204 208 285 854 855 958 959 1935 1936
961: 3 8 326 578
962: 293 294 963 964 965 966
963: 293 962 964 965 966
964: 171 294 962 963 966 2525
965: 293 294 962 963 966 2632
966: 293 294 962 963 964 965 1612 2386 2387
967: 154 968
968: 967
969: 298
970: 8 9 51 114 135 136 137 139 255 2496
971: 8 51 135 136 137 141 148 194
972: 973
973: 972 1625 1779
974: 205 555 852 895 975 976 977
975: 144 232 403 649 670 974 1005 1769 1826 1853 1911 1972 2153 2238 2278 2294 2327 2488
976: 929 974 1190 1284 1330 2005 2217 2279 2471 2488 2598 2660
977: 499 594 649 974 1286
978: 82 354 355 356 359 979
979: 82 106 218 220 272 354 355 356 357 359 742 978 1672
980: 790
981: 530 790
982: 790
983: 56
984: 604 985
985: 604 798 984 2525
986: 467
987: 314 554
988: 342
989: 167 342
990: 342
991: 992
992: 706 744 991 1519 1654
993: 994 1174 2347
994: 214 215 939 993 1949 2014
995: 996 1990
996: 995 1990
997: 3 11 18 196 263 998 999 1000 1001 1002 1003 1004 1005
998: 997 1911 2148
999: 997 1063 1416 1689 1859
1000: 997 1653
1001: 997 1129 1140 1642
1002: 249 997 1902
1003: 266 997 2341
1004: 657 997 2455
1005: 3 18 54 287 299 522 582 975 997 1039 1469 1581 1907 2013
1006: 781 1007
1007: 3 781 1006 1755
1008: 195
1009: 35 195 567 1318 1695 1757
1010: 195 1318 2013
1011: 203 204 1012 1013
1012: 167 1011 1013 2352 2654
1013: 1011 1012 1627
1014: 821 939 1015 1016 1060
1015: 1014
1016: 1014 1060 1064
1017: 85 86 87 88 89 438 601 736 1018 1019 1020
1018: 85 86 87 88 89 438 1017 1019 1020
1019: 3 18 78 84 85 86 87 88 89 434 438 819 1017 1018 1020 1244 1504 2301 2302 2303
1020: 3 78 84 85 86 87 88 89 438 1017 1018 1019 2495
1021: 589 592 595 596 597 598 599 600 601 602 605 682 683 684 1022
1022: 878 1021 1183
1023: 1024 2329
1024: 1023 2329
1025: 290 762 1026 1027 1028 2185 2463
1026: 28 1025
1027: 1025
1028: 290 761 762 1025 2463
1029: 56 59 61 434 819
1030: 343 348
1031: 853 854 855 856 958 959 1032
1032: 1031
1033: 620 621 1034 1035 1036 1037 2510 2633
1034: 1033 1036
1035: 3 162 625 1033 1036 1037
1036: 621 1033 1034 1035 1037 2380 2510
1037: 3 1033 1035 1036 2175
1038: 1039 1040 1041 1042 1043 1044 1045 2263
1039: 3 92 1005 1038 1041 1042 1043 1044 1045 1082
1040: 64 1038 1041 1042 1043 1044 1045
1041: 3 1038 1039 1040 1042 1043 1044 1045 1198 1875
1042: 580 687 1038 1039 1040 1041 1043 1044 1045
1043: 3 18 64 710 1038 1039 1040 1041 1042 1044 1045 1688
1044: 0 56 236 294 709 1038 1039 1040 1041 1042 1043 1045 1082 1426 2139
1045: 301 1038 1039 1040 1041 1042 1043 1044 1198 1260
1046: 243 244 245
1047: 204
1048: 376
1049: 1050
1050: 1049
1051: 1052
1052: 1051 1787 2021
1053: 1054 1149
1054: 701 1053 1150 1151 1858
1055: 1056 1057
1056: 1055 1178 1423 1800
1057: 59 567 605 1055 1397 2447
1058: 569 657 661
1059: 657
1060: 3 55 56 64 67 208 362 572 580 686 711 786 939 1014 1016 1061 1062 1063 1064 1384
1061: 1060 1064
1062: 938 1060 1942
1063: 144 999 1060 1093 1169 2273
1064: 55 97 98 293 301 441 517 613 614 615 709 821 830 1016 1060 1061 1394 1674 2149 2242
1065: 530 1066 2278
1066: 144 1065 1673 2237
1067: 1068
1068: 1067
1069: 96 659 881 1070
1070: 1069 1316 1561 1821 1966 2298 2299
1071: 21 212 239 377 1447 2477
1072: 137 162 212
1073: 212
1074: 1075
1075: 1074
1076: 56 584
1077: 1078
1078: 1077
1079: 257 304 307 308 458 463 465 545 546 1466
1080: 1081
1081: 1080
1082: 3 55 61 97 98 139 1039 1044 1394 1632
1083: 604 1084
1084: 298 1083 1736 1926
1085: 301
1086: 90 644 645
1087: 56 219 357 381 690 695 891 1088 1089 1090 1091 1092 1093
1088: 1087 1091 1092
1089: 1087
1090: 1087
1091: 693 699 1087 1088 2476 2581 2628 2702
1092: 693 695 699 1087 1088 2476 2581
1093: 289 357 698 699 1063 1087 2476
1094: 236 318 1095 1096 1097
1095: 1094 1096 1097 1098 1116 1194
1096: 376 1094 1095 1097 1099 1193 1194
1097: 1094 1095 1096 1098 1194 2355
1098: 1095 1097 1099 1151 1194
1099: 55 97 98 213 219 1096 1098 1171 1409 1581 1673 1845 1896
1100: 1101
1101: 1100
1102: 660 666 744 750 2113
1103: 3 59 61 63 64 918
1104: 638
1105: 135 546 654 953 2339 2499
1106: 0 3 55 56 234 495 612 613 614 615 1107 1108
1107: 1106 1317 2076
1108: 1106
1109: 1110 1515
1110: 1109
1111: 57 144 205 298 371 583 852 895 944 1112 2320
1112: 530 1111 1259 1262
1113: 290 382 762 1267
1114: 3 1115 1244 2390
1115: 1114
1116: 1095
1117: 70 72
1118: 128 298
1119: 1120
1120: 1119 1934
1121: 65 269 350 376 1122
1122: 1121
1123: 18 55 99 1124 1588 2263
1124: 3 8 98 580 878 951 1123 1557 1575 2013 2281
1125: 50 1126 1127
1126: 1125
1127: 500 503 1125
1128: 1129
1129: 564 1001 1128
1130: 1131 2582
1131: 666 706 1130
1132: 298
1133: 3 869 2492
1134: 1135 1136 1137
1135: 1134
1136: 1134
1137: 298 1134 2225
1138: 670 819 1139
1139: 44 135 1138 1619
1140: 0 56 465 473 1001
1141: 420 1142
1142: 1141
1143: 61 644
1144: 401 1145 1146 1147 1148 1492
1145: 401 1144 1146 1147 1148 1492
1146: 1144 1145 1147 1148
1147: 401 1144 1145 1146 1148
1148: 363 401 1144 1145 1146 1147
1149: 1053 1150 1151 1152
1150: 1054 1149 1151
1151: 236 1054 1098 1149 1150 1152
1152: 1149 1151
1153: 8 1154
1154: 51 137 1153
1155: 323 634 769 1242 1973 2334
1156: 1157
1157: 346 1156
1158: 8 27 481 483 1159 1160 1161 1162 1163 1164 1165 1291
1159: 481 1158 1160 1161 1163 1165 1291
1160: 8 11 27 481 483 592 1158 1159 1161 1163 1164 1291
1161: 3 8 18 27 106 107 481 483 1158 1159 1160 1163 1164 1165
1162: 1158 1163 1291
1163: 18 27 106 107 157 236 418 481 483 1158 1159 1160 1161 1162 1164 1165 1291 2415
1164: 8 27 483 1158 1160 1161 1163 1165 1291
1165: 27 329 330 331 1158 1159 1161 1163 1164 1291 1788
1166: 911
1167: 911
1168: 822 911
1169: 213 1063
1170: 11 213 235 436 2080
1171: 53 56 57 61 212 213 1099 2637
1172: 213 298 1954
1173: 213
1174: 993
1175: 24 27 30 648 650 651 652 1176
1176: 8 24 27 30 649 652 895 1175 1287
1177: 252 298 1544
1178: 16 384 771 787 1056 1285 1877 1878 1879 1880 1881
1179: 1180
1180: 1179 1816
1181: 426
1182: 184 185 189 426
1183: 61 116 155 167 426 472 1022
1184: 426
1185: 426
1186: 64 848
1187: 1188 1189 1704
1188: 1187
1189: 1187 1704 1706
1190: 38 204 226 227 228 229 231 232 233 235 237 238 240 241 252 444 446 447 518 652 742 949 976 1191 1192 1737 2575
1191: 227 230 231 233 235 237 238 239 240 447 639 1190 2624
1192: 230 231 233 238 239 240 241 444 1190
1193: 848 1096 1244 1262 1585 2270 2311 2527
1194: 56 1095 1096 1097 1098
1195: 272 1460 1461
1196: 219 271 272 1240 1241 1268 1269
1197: 218 220 260 272 358 698 1596
1198: 55 97 98 163 220 271 272 318 358 403 711 725 1041 1045 1239 1241 1268 1687 1688 2306 2345 2346 2491
1199: 3 18 323 713 757 1200
1200: 834 1199 1585 2328 2520
1201: 1202
1202: 1201
1203: 559 1204
1204: 1203 1691
1205: 52 56 61 769 895 917 2113 2342
1206: 3 132 133 150 162 236 414 467 500 501 502 503 504 505 506 507 508 509 510 511 512 513 516 787 1207 1208 1209 1210 1211 1212 1213 1214
1207: 162 513 1206 2312
1208: 501 513 742 821 1206 1213 1462 1463 1464 1465 1466 2174 2312
1209: 162 512 1206 1213 2174 2312
1210: 1206 1515
1211: 93 580 582 682 713 834 939 941 1206 1372 1585 1737 2074 2406 2520 2605 2673
1212: 509 1206
1213: 162 500 503 505 508 509 510 511 513 515 1206 1208 1209 1895 2533
1214: 1206
1215: 1216
1216: 1215
1217: 236 348 357
1218: 154 1219 1220
1219: 1218
1220: 1218 1513
1221: 38 292 936 1222
1222: 848 1221
1223: 1224
1224: 1223
1225: 1226
1226: 1225
1227: 156 298 436 554 706 1228
1228: 1227
1229: 1230
1230: 1229 1860 2259 2335
1231: 1232 2535
1232: 1231
1233: 106 114 2660
1234: 24 27 30 250 410 648 649 650 651 652
1235: 209 249
1236: 38 65 74 142 212 236 315 318 350 376 580 930 1275 1764
1237: 708 1238 2348 2594
1238: 124 1237 1396 1551 2161 2333 2660
1239: 164 165 631 632 633 634 878 1198 1240 1241 1242 2306
1240: 164 219 220 271 367 632 1196 1239 1241 1242 1268 1269 1289 2306
1241: 219 220 271 289 357 632 635 1196 1198 1239 1240 1268 1269 1289 2306
1242: 163 165 323 631 632 633 634 635 878 1155 1239 1240 1269
1243: 3 8 44 51 114 135 269 672 792 951 1477 1479 2074
1244: 44 78 85 86 162 236 376 438 627 1019 1114 1193 1245 1246 1247 1248 1249 1250 1251 1252 1293
1245: 1244 1262 1627 2113
1246: 1244 1293 2076
1247: 1244
1248: 1244 1960 1961 2311
1249: 1244
1250: 1244
1251: 1244
1252: 1244
1253: 562
1254: 137 298 410 418 456 461 462 464 895 1255 1256 1257 1258
1255: 1254 2141
1256: 1254
1257: 1254
1258: 378 897 1254 2193
1259: 1112
1260: 18 57 287 657 1045 1261 2027 2161 2162 2163 2164
1261: 214 249 287 418 1260
1262: 135 301 605 1112 1193 1245
1263: 107 254
1264: 44 51 55 135 138 150 579 580 582 921 1265 1266
1265: 44 135 150 397 567 1264 1266 1657 2160 2216
1266: 44 51 135 150 1264 1265 2160
1267: 53 56 1113
1268: 164 219 220 271 357 358 1196 1198 1240 1241 1269 1289 2518
1269: 163 218 219 271 272 357 358 635 666 1196 1240 1241 1242 1268 1289 1394 2581
1270: 3 1555
1271: 144 848 2329
1272: 848
1273: 135 183 376 848 1519
1274: 190 848
1275: 61 65 350 848 1236
1276: 848
1277: 530
1278: 1279 1280 1281 1282
1279: 1278 1409
1280: 1278
1281: 1278
1282: 187 1278 1970 2103
1283: 1284
1284: 205 298 578 852 976 1283
1285: 649 1178
1286: 298 499 649 977 1330 1864 2279
1287: 24 30 649 651 652 1176
1288: 913 1305
1289: 82 218 219 272 289 354 355 356 357 358 633 1240 1241 1268 1269 1290
1290: 1289 1618 1861
1291: 8 27 199 200 481 483 1158 1159 1160 1162 1163 1164 1165 2074
1292: 204
1293: 1244 1246
1294: 1295 1296 1863
1295: 856 1294 2105
1296: 1294
1297: 661 1767 2185 2526
1298: 61 106 107 661 1621 2351 2352
1299: 249
1300: 14 1301 1302 1772
1301: 1300 1302 2437
1302: 859 904 1300 1301 1377 1432 1772
1303: 848 1304
1304: 330 1303 2494 2707
1305: 65 350 469 659 787 1288 1473
1306: 514 1307 1317
1307: 1306 1578 2182
1308: 56 1309 1310 2198
1309: 1308
1310: 144 1308 2198 2202
1311: 243
1312: 3 56 301 418 467
1313: 142 1314 1315
1314: 600 1313
1315: 1313 2360
1316: 592 593 595 596 597 598 601 602 605 1070
1317: 1107 1306 1318
1318: 1009 1010 1317 2504 2517
1319: 298
1320: 1321
1321: 1320
1322: 55 97 318 580 662 711 713 829 830 835
1323: 662
1324: 662 857 1606 2400
1325: 128 317 662 737 785 1378 1879 2072 2115 2127 2128
1326: 662 1887
1327: 1328 1329 1330 1896 2226
1328: 1327 1330 2226
1329: 1327 1330 1376 2101 2102 2226
1330: 204 298 895 976 1286 1327 1328 1329 1376
1331: 532 1332 1526 1544 2409
1332: 1331
1333: 183
1334: 183
1335: 183
1336: 183 1544
1337: 183 184
1338: 183
1339: 819
1340: 38 819 823
1341: 751 754
1342: 8 11 114 142 376 522
1343: 628
1344: 1345 1346
1345: 1344
1346: 1344
1347: 159 819 849
1348: 663
1349: 663
1350: 55 266 377 532 869 1508 2077
1351: 414 2594
1352: 1353
1353: 1352
1354: 3 236 706 856
1355: 395
1356: 1357 1358 1359
1357: 1356 1709
1358: 1356
1359: 1356
1360: 1361
1361: 1360
1362: 901 1873
1363: 382
1364: 765
1365: 765 2436
1366: 765
1367: 657 1368
1368: 1367 1709
1369: 470 1370 1371
1370: 1369
1371: 41 816 951 1369 1515
1372: 3 11 64 333 1211
1373: 167
1374: 167
1375: 167
1376: 167 1329 1330 1800 2102
1377: 128 167 254 1302
1378: 167 1325 1458 1974 2173
1379: 44 167 1621
1380: 167
1381: 167
1382: 167
1383: 167
1384: 167 1060
1385: 167
1386: 167
1387: 167
1388: 204
1389: 1390
1390: 1389
1391: 1392 1393
1392: 1391
1393: 1391
1394: 3 18 55 98 713 885 1064 1082 1269 1395 1396 1397 1398 1399 1472 1737 2549
1395: 1394 1397
1396: 219 1238 1394 1397 1952 2469 2617 2618
1397: 1057 1394 1395 1396
1398: 955 1394
1399: 3 1394 1472 1685 1737 1738 2333
1400: 374
1401: 558
1402: 490 493 529 550 2607
1403: 677
1404: 1405
1405: 1404
1406: 569
1407: 569 2229
1408: 3
1409: 12 17 22 265 522 1099 1279 1410 1411 1412 1413
1410: 1409
1411: 1409
1412: 1409
1413: 1409
1414: 56
1415: 578 819 822
1416: 999
1417: 135
1418: 135
1419: 107 135 596 1672 1822 1823 1824 2268
1420: 135 2241
1421: 1422
1422: 1421 1555
1423: 8 250 1056 1424 1425 1426 1427 1428 1429 1430
1424: 1423 1429 1430
1425: 1423
1426: 1044 1423 1838
1427: 431 1423 1430
1428: 1423 1429 1430
1429: 1423 1424 1428 1430 1690
1430: 1423 1424 1427 1428 1429
1431: 254
1432: 1302
1433: 159 160
1434: 223
1435: 222 223 914 915 1436
1436: 222 223 914 915 1435 1437 2380
1437: 68 222 223 1436 2083 2570
1438: 879
1439: 89 879
1440: 551 553 2262 2497
1441: 583
1442: 1443
1443: 1442
1444: 1445
1445: 1444
1446: 71
1447: 221 1071 1448 1449 1450 1451 1452
1448: 1447
1449: 1447
1450: 1447
1451: 1447
1452: 1447
1453: 317 1454
1454: 1453 1622 1913 2297 2470
1455: 51 1456
1456: 1455 2049
1457: 396 1458
1458: 143 1378 1457 1594 1595 1596 1597
1459: 218 220 358
1460: 1195 1461
1461: 1195 1460
1462: 1208
1463: 1208
1464: 1208
1465: 1208 1778 2274
1466: 64 98 579 582 878 1079 1208 1893 1937
1467: 133 134 350 579 1537
1468: 350 2280
1469: 3 64 97 567 582 885 1005 1917 1953 2229 2520
1470: 567
1471: 1472 1473 1474 1475 1476 1477 1478 1479 1480 1481 1507
1472: 107 518 941 1394 1399 1471 1473 1474 1475 1476 1477 1479 1480 1481 1505 1737 1882
1473: 107 1305 1471 1472 1474 1476 1477 1478 1479 1480 1481 1505
1474: 133 403 810 941 942 943 1471 1472 1473 1475 1476 1477 1478 1479 1480 1481 1505 1506 1507 2540 2541
1475: 1471 1472 1474 1477 1481 1505
1476: 1471 1472 1473 1474 1478 1479 1480 1481 1505 1506 1507 1882
1477: 1243 1471 1472 1473 1474 1475 1478 1479 1480 1481 1505 1506 1882 1905 2175 2182
1478: 1471 1473 1474 1476 1477 1479 1480 1506 2310
1479: 107 391 411 412 688 720 804 805 808 810 1243 1471 1472 1473 1474 1476 1477 1478 1480 1481 1505 1506 1507
1480: 106 107 1471 1472 1473 1474 1476 1477 1478 1479 1505 1506 1507
1481: 1471 1472 1473 1474 1475 1476 1477 1479 1505 1507 1646
1482: 184 834
1483: 834
1484: 834 2050
1485: 834
1486: 834
1487: 834 836
1488: 834 2250 2316
1489: 1490 1491 1492
1490: 1489
1491: 1489 1492
1492: 1144 1145 1489 1491 1734 1735 1934
1493: 39 298 517
1494: 179 1495
1495: 96 440 885 1494 2013 2074 2281 2659
1496: 45 47 849 951 1497 1498
1497: 47 951 1496
1498: 1496
1499: 184
1500: 184
1501: 184
1502: 184
1503: 390
1504: 85 88 438 1019 2044 2046 2366
1505: 1472 1473 1474 1475 1476 1477 1479 1480 1481 1506 1507
1506: 1474 1476 1477 1478 1479 1480 1505
1507: 1471 1474 1476 1479 1480 1481 1505 2585 2669
1508: 377 868 869 1350
1509: 3 1510
1510: 1509
1511: 935
1512: 344 345 346 348
1513: 106 107 619 1220 1514
1514: 1513 2173
1515: 170 502 515 645 1109 1210 1371 1516
1516: 1515 2173
1517: 212
1518: 56 57 583 1519
1519: 34 57 97 195 275 318 742 992 1273 1518 2162 2211 2212 2213
1520: 48 61 234
1521: 61 234 377 2105 2154
1522: 313 1703 1905
1523: 1524 1525
1524: 1523 1525
1525: 121 1523 1524 1980
1526: 128 317 441 1331 1527 1528 1529 1530
1527: 208 1526 1698 2158
1528: 1526
1529: 1526
1530: 1526 1543
1531: 622 625 1532 1533 2175
1532: 1531 1759
1533: 1531 2083
1534: 789 1535 1536
1535: 1534
1536: 789 1534 2410 2411 2412
1537: 1467 2013
1538: 249 1539 2660
1539: 1538 2598
1540: 3 137 783 1541 1542
1541: 1540
1542: 1540 1544 2608
1543: 1530
1544: 8 11 56 208 554 727 757 1177 1331 1336 1542 1545 1546 1547 1548 1549
1545: 96 1544
1546: 1544
1547: 3 55 236 567 582 1544 1719 1720 2013
1548: 1544
1549: 1544
1550: 859 1862 1863
1551: 144 185 377 634 635 1238
1552: 185 2657
1553: 543 1554
1554: 3 543 1553 2442
1555: 1270 1422 1556
1556: 1555 1793 1794
1557: 55 1124 2119 2281
1558: 305 457 458 459 460 461 462 463
1559: 459
1560: 410 593 601 605 1561 1571 1789 1790 2391
1561: 593 601 605 1070 1560 1571 1789 1790 2186 2391
1562: 1563
1563: 1562
1564: 560
1565: 242 911 1566
1566: 1565
1567: 836
1568: 56 236 467
1569: 1570 1888 1991
1570: 1569 1888 1890 1991
1571: 605 1560 1561 1790 2391
1572: 1573
1573: 1572 2461
1574: 56 65 317 581
1575: 527 582 1124 2013 2074
1576: 1577 1578 1782 1904
1577: 1576 1578 1781 1782
1578: 1307 1576 1577 1781 1782 1783 1904
1579: 514 1580
1580: 1579
1581: 3 11 12 18 55 236 1005 1099
1582: 367
1583: 367 1588
1584: 367
1585: 3 55 64 582 634 1193 1200 1211 2250
1586: 71
1587: 71 72
1588: 3 55 64 74 93 579 789 885 1123 1583 1589 1590 1591 1592 2193
1589: 1588
1590: 1588
1591: 74 1588
1592: 789 1588
1593: 64 193
1594: 1458
1595: 1458
1596: 1197 1458
1597: 1458
1598: 258 659 1599
1599: 1598
1600: 131 1601
1601: 131 1600
1602: 82 220 354 356 358 359
1603: 711 1604
1604: 580 711 829 1603 1650 1785
1605: 467
1606: 376 1324
1607: 1608 1609
1608: 1607
1609: 1607
1610: 128
1611: 1612 2041
1612: 406 966 1611 2041 2198
1613: 114 252 257 279 280 281 282 283
1614: 280 844 921 2013
1615: 1616 2590
1616: 1615
1617: 773 1618 1619
1618: 1290 1617 1709
1619: 793 1139 1617
1620: 3 64 356
1621: 1298 1379 1752 2013 2201 2352 2689
1622: 836 1454
1623: 399 408 409 411 904 943 1624
1624: 403 1623
1625: 973 1626
1626: 1625 2209 2210
1627: 101 1013 1245 1628 1629 1630 2698
1628: 1627
1629: 1627
1630: 1627 2214 2382
1631: 318 376 388 1632
1632: 823 1082 1631
1633: 219 2684
1634: 955 1635 1636
1635: 1634
1636: 537 1634 2444 2655
1637: 1638 2393
1638: 1637
1639: 3 56 467
1640: 216 1641 1875 2055
1641: 216 1640 1875 2055
1642: 1001
1643: 1644
1644: 1643
1645: 50 865 1646
1646: 1481 1645 1867 2048
1647: 56
1648: 801 1649
1649: 65 350 788 955 1648
1650: 399 1604
1651: 65 399 2214
1652: 3 8 653 655
1653: 594 1000 1786 2446
1654: 895 992 1655
1655: 1654
1656: 44 1799 1876
1657: 44 150 1265 1659 1865
1658: 44
1659: 44 1657
1660: 3 8 17 18 19 22 55 133 265 437 492 522 819 1661 1662 1663 2533 2582
1661: 1660
1662: 1660 1800
1663: 1660 1800
1664: 236 382
1665: 137 162 278 476 788 1666 1667 1668 1669 1670
1666: 1665
1667: 1665
1668: 1665
1669: 1665
1670: 1665
1671: 8 318
1672: 82 106 107 272 289 354 355 356 357 358 359 722 979 1419
1673: 44 56 128 137 205 299 317 467 787 801 1066 1099
1674: 96 106 383 1064 1675 1676 1677 1678 2549
1675: 1674
1676: 595 712 1674 1800
1677: 554 1674
1678: 1674
1679: 162 509 1742
1680: 162 509 511 1742
1681: 162
1682: 162
1683: 38 364 590 839 840 956 2512
1684: 792
1685: 1399 1737
1686: 1687 1688 1843
1687: 1198 1686 1843 1850 2013
1688: 602 1043 1198 1686 1850
1689: 999 1875
1690: 1429 1873
1691: 1204 1692
1692: 787 1691 1791 1792
1693: 849 1694
1694: 1693
1695: 134 214 939 1009 1949 2048 2415 2495 2498
1696: 214 215
1697: 214 788
1698: 1527 1981 2231
1699: 1700
1700: 1699 1844
1701: 1702
1702: 1701 1942
1703: 18 1522
1704: 83 261 1187 1189 1705 1706
1705: 1704
1706: 1189 1704
1707: 144
1708: 144 1818
1709: 61 144 1357 1368 1618 1728 1729 1730
1710: 144
1711: 144
1712: 144
1713: 11 95
1714: 148
1715: 97
1716: 3 469 1717
1717: 55 57 583 1716 2598
1718: 932
1719: 1547
1720: 345 1547
1721: 3 137 169 258 572
1722: 75 76 77
1723: 17 590 657 660 670
1724: 20 420 572 1800
1725: 3 547 1726 1727
1726: 1725 1727
1727: 3 1725 1726
1728: 1709 2513
1729: 3 1709 2304
1730: 1709
1731: 1732
1732: 1731 2638
1733: 939
1734: 895 1492 1735 1934 2341
1735: 1492 1734 1934
1736: 18 44 137 236 317 1084
1737: 3 64 67 93 579 910 933 1190 1211 1394 1399 1472 1685 1738 1739 1740 2603 2604 2605
1738: 661 1399 1737
1739: 1737
1740: 582 1737
1741: 236
1742: 503 504 507 511 515 620 1679 1680
1743: 1744
1744: 258 868 1743 2458
1745: 1746 2152 2308
1746: 1745
1747: 1748 1749 1750 1751
1748: 1747
1749: 1747 1750
1750: 183 184 1747 1749
1751: 1747
1752: 56 171 659 1621 1753
1753: 1752 2612
1754: 38 55 65 97 1755 1756
1755: 1007 1754
1756: 1754
1757: 424 532 849 1009 2306
1758: 56 254
1759: 1532 1760 1761
1760: 1759
1761: 1759
1762: 65 579
1763: 253
1764: 152 253 377 1236
1765: 11 106 107 253
1766: 298 634
1767: 3 207 1297 1768
1768: 1767
1769: 3 137 318 436 555 975 1770 1771
1770: 1769
1771: 1769
1772: 605 1300 1302
1773: 377
1774: 377
1775: 377
1776: 377
1777: 377
1778: 1465
1779: 973
1780: 198 389 392 402 403 406 408 409 411 412 943
1781: 38 1577 1578 1782 1783
1782: 1576 1577 1578 1781
1783: 1578 1781
1784: 1785
1785: 376 1604 1784 2042
1786: 358 594 1653
1787: 3 115 579 1052 1788
1788: 38 55 107 114 298 329 330 331 371 823 1165 1787
1789: 1560 1561
1790: 1560 1561 1571 2391
1791: 298 517 1692 2615
1792: 1692
1793: 1556 1794
1794: 628 1556 1793
1795: 414
1796: 1797
1797: 1796
1798: 1799
1799: 56 154 1656 1798 1825
1800: 8 12 13 17 18 19 54 114 265 318 440 522 819 1056 1376 1662 1663 1676 1724 1801 1802 1803 1804 1805 1806 1807 1808 1809 1810 1811 1812 1813
1801: 712 1800
1802: 1800
1803: 1800
1804: 1800
1805: 1800
1806: 1800
1807: 38 162 1800 2495
1808: 1800
1809: 257 823 1800
1810: 20 1800
1811: 1800
1812: 895 1800
1813: 1800
1814: 1815
1815: 1814
1816: 1180
1817: 115 405
1818: 3 53 298 420 548 549 550 554 1708 1819 1820
1819: 1818
1820: 1818 2435
1821: 1070
1822: 3 106 107 1419 1823 1824
1823: 1419 1822 1824
1824: 106 107 1419 1822 1823
1825: 1799
1826: 975
1827: 8 1828
1828: 1827
1829: 706
1830: 505 508
1831: 250
1832: 3 18 644 657 1833
1833: 3 64 96 579 657 671 799 1832 1918
1834: 135 1835 1836
1835: 1834 2259 2448
1836: 1834 2511
1837: 936
1838: 16 249 1426 1839
1839: 337 1838
1840: 1841 1842
1841: 508 1840 2005 2598
1842: 1840
1843: 42 1686 1687
1844: 3 291 1700
1845: 1099 1846
1846: 1845 2053 2263
1847: 57 155 249 312 371
1848: 823
1849: 823
1850: 55 98 351 757 1687 1688
1851: 1852
1852: 1851 2488
1853: 38 975 1854
1854: 1853
1855: 515 736 1856 1857
1856: 1855
1857: 1855
1858: 44 528 1054
1859: 382 999
1860: 3 55 1230 1861
1861: 1290 1860
1862: 440 567 580 1550 1863
1863: 18 150 298 403 414 566 567 580 686 1294 1550 1862 2106 2238 2249
1864: 1286 2533
1865: 25 150 495 1657 1930 1931 1932
1866: 402 708
1867: 1646 1868 1869
1868: 1867
1869: 1867
1870: 357
1871: 823
1872: 128 162 236 1873
1873: 250 405 595 1362 1690 1872 2072 2088 2495 2576 2577
1874: 1875
1875: 216 1041 1640 1641 1689 1874 2055
1876: 582 859 1656
1877: 1178
1878: 1178
1879: 1178 1325 1985
1880: 1178
1881: 1178
1882: 249 351 352 726 1472 1476 1477
1883: 57 371 583
1884: 59 61 63 116 1885 1886 2248
1885: 1884
1886: 1884
1887: 628 1326
1888: 1569 1570 1889 1890 1991
1889: 1888 1991
1890: 1570 1888 1991
1891: 788
1892: 788 2075
1893: 788 1466 2372
1894: 162
1895: 512 1213 2312
1896: 1099 1327
1897: 44 57 61 1898
1898: 1897
1899: 1900
1900: 532 1899
1901: 328
1902: 249 704 1002 2067
1903: 215 1949 1965 2511
1904: 1576 1578
1905: 168 424 1477 1522 1906 1907 1908 1909 1910 1934 2141 2448
1906: 1905 2660
1907: 1005 1905
1908: 1905 1957
1909: 1905
1910: 1905
1911: 3 18 132 285 975 998 1912
1912: 1911
1913: 1454
1914: 881
1915: 57
1916: 56 137 420
1917: 3 55 64 579 582 885 1469 1918
1918: 582 1833 1917 2013
1919: 720
1920: 720
1921: 1922
1922: 116 137 1921 2037 2223
1923: 856
1924: 275 1925
1925: 1924
1926: 1084
1927: 1928 1929
1928: 957 1927
1929: 1927
1930: 1865
1931: 1865
1932: 1865
1933: 579 659
1934: 61 1120 1492 1734 1735 1905
1935: 960
1936: 960
1937: 350 1466
1938: 376 1939
1939: 1938
1940: 39
1941: 157
1942: 1062 1702 1943
1943: 1942
1944: 254 257
1945: 254
1946: 3 56 801 849 1947
1947: 1946
1948: 236
1949: 61 144 249 495 554 994 1695 1903 1950 1951
1950: 1949 2180 2660
1951: 1949
1952: 1396 2344
1953: 3 18 64 885 892 1469 2520 2620
1954: 1172
1955: 696
1956: 111
1957: 3 8 11 18 38 195 499 522 582 831 1908 1958
1958: 1957
1959: 42 212 436
1960: 1248
1961: 1248 2311
1962: 236 317
1963: 605 1964
1964: 1963
1965: 378 1903 1966 1967
1966: 38 297 1070 1965 2495 2534
1967: 1965
1968: 306
1969: 306
1970: 80 1282 1971 2660
1971: 1970
1972: 975 1973
1973: 1155 1972 2078
1974: 1378 1975
1975: 1974
1976: 363 366 367 369
1977: 56
1978: 1979
1979: 1978
1980: 1525
1981: 317 469 553 859 1698
1982: 128 205 337 376 380 553 554 895
1983: 1984
1984: 1983 2159 2561
1985: 56 57 61 350 436 554 580 775 1879
1986: 1987
1987: 1986 2660
1988: 1989 2660
1989: 1988 2474 2582 2598
1990: 995 996
1991: 3 30 1569 1570 1888 1889 1890 1992 1993 1994
1992: 1991
1993: 1991
1994: 1991
1995: 580
1996: 376
1997: 708
1998: 28 133 812 2420
1999: 2000
2000: 1999
2001: 97
2002: 55 97 98 579 2010
2003: 11 57 61 65 116 117 295 419
2004: 812
2005: 298 517 976 1841 2006
2006: 2005
2007: 53 56 61 2008 2009
2008: 2007
2009: 2007
2010: 55 2002
2011: 614
2012: 54 2013
2013: 8 11 17 18 53 54 55 56 58 59 61 63 64 65 67 68 96 113 114 138 154 236 263 265 295 402 403 440 522 547 552 579 580 582 709 710 713 714 757 878 921 939 1005 1010 1124 1495 1537 1547 1575 1614 1621 1687 1918 2012 2192 2299 2349 2484 2485 2486 2487
2014: 285 553 994
2015: 2016
2016: 2015
2017: 2018
2018: 2017 2259
2019: 205 298 852 895 2020
2020: 2019 2674
2021: 1052 2022 2458
2022: 687 2021 2458
2023: 358
2024: 686 785 2025 2393
2025: 11 686 2024
2026: 2027
2027: 1260 2026 2296
2028: 57 249 583
2029: 2030
2030: 2029
2031: 337
2032: 57 583 2033
2033: 855 2032
2034: 9 11 18 22 38 55 97 114 129 133 142 156 495 554 714 2035
2035: 2034
2036: 236 357 495
2037: 3 1922 2223
2038: 3 18 134 710
2039: 258 852
2040: 2041
2041: 1611 1612 2040 2068
2042: 1785
2043: 2044
2044: 537 1504 2043
2045: 57 249 420
2046: 78 85 1504
2047: 18 166
2048: 317 384 567 580 1646 1695
2049: 1456
2050: 1484
2051: 203 204
2052: 56 344 345
2053: 1846 2054
2054: 2053
2055: 216 612 1640 1641 1875
2056: 44
2057: 2058 2601
2058: 2057
2059: 64 150 849
2060: 455 2061
2061: 340 376 392 402 411 455 2060 2533
2062: 61
2063: 61
2064: 61
2065: 533
2066: 133
2067: 249 1902
2068: 712 2041
2069: 712
2070: 2071 2072 2073
2071: 2070 2202
2072: 1325 1873 2070 2111 2608
2073: 2070
2074: 3 11 18 55 64 96 97 98 114 199 403 582 885 1211 1243 1291 1495 1575 2344
2075: 18 376 1892
2076: 56 1107 1246
2077: 869 1350
2078: 174 177 626 1973 2079
2079: 2078
2080: 236 1170
2081: 57
2082: 134
2083: 445 492 916 1437 1533 2084 2085 2086 2087 2088 2089 2090 2091 2092 2093 2094 2095 2096 2097 2098
2084: 2083
2085: 2083
2086: 2083
2087: 2083
2088: 1873 2083 2608
2089: 329 2083
2090: 2083
2091: 2083
2092: 576 2083
2093: 2083 2439
2094: 2083
2095: 2083
2096: 2083
2097: 2083
2098: 2083
2099: 203 204 2100
2100: 2099
2101: 1329 2102
2102: 1329 1376 2101 2226
2103: 303 554 1282 2104 2602
2104: 2103
2105: 107 757 822 1295 1521 2106
2106: 1863 2105
2107: 619
2108: 452
2109: 410 2110
2110: 2109 2181 2473
2111: 225 2072
2112: 130
2113: 11 36 252 257 522 742 1102 1205 1245 2114 2115 2116
2114: 2113
2115: 1325 2113
2116: 2113
2117: 461
2118: 422
2119: 3 55 318 1557 2120
2120: 2119
2121: 467 663 768 2122
2122: 2121
2123: 157
2124: 367 369
2125: 9 2126
2126: 2125
2127: 1325
2128: 436 1325 2286
2129: 836
2130: 628
2131: 57 249 583
2132: 557
2133: 68 2134 2135
2134: 68 2133
2135: 2133
2136: 602
2137: 602
2138: 555 602
2139: 1044
2140: 255
2141: 38 683 742 1255 1905 2142 2143 2144
2142: 2141
2143: 2141
2144: 156 2141
2145: 137
2146: 3 11 495 578 579 2147
2147: 2146
2148: 998
2149: 3 52 64 579 610 885 1064 2150 2151
2150: 2149
2151: 2149 2313 2314
2152: 388 1745 2153 2154
2153: 128 300 975 2152 2432 2433
2154: 1521 2152
2155: 137 572
2156: 2157
2157: 2156
2158: 1527
2159: 1984
2160: 150 1265 1266
2161: 1238 1260
2162: 1260 1519
2163: 1260
2164: 957 1260
2165: 298
2166: 298
2167: 298
2168: 298
2169: 298
2170: 298
2171: 298 2175
2172: 243 298 517 2660
2173: 56 106 298 742 1378 1514 1516
2174: 1208 1209 2312 2533
2175: 626 1037 1477 1531 2171 2176 2177
2176: 2175
2177: 2175
2178: 2179
2179: 2178
2180: 1950
2181: 2110 2182
2182: 1307 1477 2181 2303 2597 2649
2183: 530
2184: 462 2297 2438
2185: 1025 1297 2186 2187 2188 2189 2190
2186: 1561 2185 2391
2187: 2185
2188: 2185
2189: 2185
2190: 2185
2191: 582
2192: 582 859 2013
2193: 3 636 782 1258 1588 2194 2318
2194: 2193 2353
2195: 697 698
2196: 364 2197
2197: 2196
2198: 436 615 1308 1310 1612 2199 2200
2199: 2198 2408
2200: 2198
2201: 1621
2202: 1310 2071 2203 2204
2203: 2202
2204: 2202
2205: 255
2206: 255
2207: 2208
2208: 2207
2209: 1626
2210: 1626
2211: 1519
2212: 1519
2213: 1519
2214: 358 736 1630 1651
2215: 8 9 44 51 114 135 140 252 253 254 257 2216 2485 2497
2216: 8 9 11 44 51 54 61 113 135 140 142 145 150 204 249 252 253 254 257 474 859 879 1265 2215 2217 2497
2217: 652 895 976 2216
2218: 2219
2219: 2218
2220: 2221 2222 2419
2221: 2220
2222: 2220
2223: 128 212 1922 2037 2224
2224: 2223
2225: 3 1137
2226: 3 1327 1328 1329 2102
2227: 849 2228
2228: 2227
2229: 1407 1469
2230: 65 133 157 350 788
2231: 301 1698
2232: 2233 2234
2233: 537 2232 2487 2505
2234: 2232
2235: 61 486
2236: 137 603
2237: 1066
2238: 156 605 766 975 1863
2239: 218 272 289 633
2240: 95
2241: 1420
2242: 64 1064 2243 2244
2243: 61 2242
2244: 2242
2245: 56 2246
2246: 2245 2273
2247: 2248
2248: 1884 2247
2249: 63 1863 2360
2250: 18 64 67 96 99 236 384 579 885 1488 1585
2251: 2252
2252: 2251
2253: 469
2254: 513
2255: 550 551 921
2256: 3 548 549 550 551 920
2257: 203 204 318 680 771 2258
2258: 2257
2259: 135 137 1230 1835 2018 2260 2261 2262 2263
2260: 2259
2261: 2259 2325
2262: 1440 2259
2263: 155 611 736 757 1038 1123 1846 2259 2705 2706
2264: 162 470 2265
2265: 2264
2266: 3 2267
2267: 106 107 2266 2442
2268: 107 1419 2579
2269: 148
2270: 1193 2271
2271: 2270
2272: 580
2273: 30 1063 2246
2274: 1465
2275: 3 2276
2276: 2275
2277: 403
2278: 97 117 212 377 436 495 895 975 1065 2279
2279: 65 137 292 297 298 299 517 976 1286 2278 2495
2280: 1468 2441
2281: 55 677 1124 1495 1557
2282: 2283
2283: 2282 2646
2284: 531
2285: 531
2286: 2128
2287: 2288 2289
2288: 2287
2289: 2287
2290: 793
2291: 45 46 946
2292: 64 2293
2293: 2292
2294: 3 236 495 644 975 2295
2295: 2294
2296: 2027
2297: 1454 2184
2298: 1070
2299: 1070 2013
2300: 154
2301: 1019
2302: 1019
2303: 38 1019 2182
2304: 91 1729 2305
2305: 2304
2306: 219 220 271 289 1198 1239 1240 1241 1757
2307: 376
2308: 1745 2309
2309: 2308
2310: 1478
2311: 376 627 1193 1248 1961
2312: 500 503 507 508 509 511 1207 1208 1209 1895 2174
2313: 2151
2314: 2151
2315: 905
2316: 18 64 384 1488
2317: 404
2318: 441 2193
2319: 249
2320: 1111
2321: 2322 2323
2322: 2321
2323: 2321
2324: 3
2325: 482 2261
2326: 797
2327: 8 18 380 852 975
2328: 1200
2329: 18 336 338 339 474 1023 1024 1271
2330: 53 56 57
2331: 51 2332
2332: 2331
2333: 1238 1399
2334: 322 323 1155
2335: 1230
2336: 2337 2338
2337: 2336 2338
2338: 862 2336 2337 2525 2668
2339: 545 953 1105
2340: 57
2341: 1003 1734
2342: 1205 2343
2343: 2342 2660
2344: 9 1952 2074
2345: 97 98 1198 2346
2346: 98 1198 2345
2347: 16 38 128 137 144 205 295 299 376 553 555 852 895 993
2348: 708 1237
2349: 532 534 895 2013
2350: 128 289 357
2351: 1298
2352: 56 537 645 1012 1298 1621
2353: 57 249 2194 2354
2354: 2353
2355: 1097 2356
2356: 2355
2357: 315 319 321 2358
2358: 256 2357
2359: 31 34
2360: 1315 2249 2361
2361: 2360
2362: 11
2363: 239
2364: 239
2365: 239 2551
2366: 78 84 85 438 1504
2367: 2368
2368: 2367
2369: 849
2370: 548 550 551
2371: 56 819
2372: 41 56 208 1893 2373
2373: 2372
2374: 46 130 590 657 660 670 744 2375
2375: 500 2374
2376: 3 64
2377: 407
2378: 137
2379: 222
2380: 57 222 560 915 1036 1436 2381
2381: 2380
2382: 1630
2383: 684
2384: 297 730 2385
2385: 2384
2386: 966
2387: 966
2388: 484 911
2389: 869
2390: 1114
2391: 593 601 605 1560 1561 1571 1790 2186
2392: 289 358 911
2393: 98 1637 2024
2394: 2395 2396
2395: 2394
2396: 2394
2397: 2398 2660
2398: 2397
2399: 295
2400: 1324
2401: 18
2402: 301
2403: 57 436 911
2404: 264
2405: 257
2406: 580 1211
2407: 106 107 859
2408: 66 2199
2409: 1331
2410: 1536
2411: 1536
2412: 789 1536
2413: 8 162
2414: 57 583
2415: 55 204 1163 1695 2416
2416: 2415
2417: 38 128 350 376
2418: 533
2419: 8 137 207 709 2220 2420 2463
2420: 537 1998 2419
2421: 297
2422: 687
2423: 706 2605
2424: 2425
2425: 2424
2426: 203
2427: 112
2428: 2429 2430 2431
2429: 2428
2430: 2428
2431: 2428
2432: 2153
2433: 2153
2434: 18
2435: 1820
2436: 3 1365
2437: 317 1301
2438: 2184
2439: 64 2093
2440: 61 332 2506
2441: 2280
2442: 1554 2267
2443: 2444
2444: 1636 2443
2445: 128 363 366 367 369
2446: 1653
2447: 1057
2448: 3 56 106 578 580 1835 1905 2449
2449: 2448
2450: 441
2451: 3 278
2452: 2453 2454
2453: 2452
2454: 2452
2455: 1004 2456
2456: 2455
2457: 497
2458: 18 128 1744 2021 2022
2459: 465
2460: 270 430
2461: 236 1573
2462: 8 394 545 836
2463: 290 508 761 762 1025 1028 2419
2464: 605
2465: 605
2466: 605
2467: 605
2468: 590 744
2469: 263 1396 2511 2641 2642
2470: 1454
2471: 53 895 976 2472
2472: 2471
2473: 2110
2474: 1989
2475: 56 61 115 298 486 2569
2476: 357 1091 1092 1093
2477: 1071 2478
2478: 2477
2479: 812
2480: 236 337 379 812
2481: 885 2482
2482: 2481
2483: 399 404 445
2484: 2013
2485: 114 2013 2215 2605
2486: 2013
2487: 2013 2233
2488: 65 172 205 236 895 975 976 1852 2489
2489: 2488
2490: 532
2491: 1198 2583
2492: 57 1133 2493 2494
2493: 2492
2494: 1304 2492
2495: 121 303 505 508 716 1020 1695 1807 1873 1966 2279 2502 2503 2512 2523 2535 2598 2605 2606 2667 2695
2496: 114 970
2497: 9 142 1440 2215 2216
2498: 1695
2499: 1105 2500
2500: 2499
2501: 56
2502: 293 892 2495
2503: 2495
2504: 1318
2505: 2233
2506: 2440
2507: 494
2508: 2509
2509: 2508
2510: 1033 1036
2511: 54 688 1836 1903 2469 2538 2627
2512: 921 1683 2495
2513: 1728 2514 2515
2514: 2513 2515
2515: 659 2513 2514 2585 2635
2516: 620
2517: 1318 2549
2518: 219 1268
2519: 590
2520: 55 534 582 885 1200 1211 1469 1953
2521: 2522
2522: 798 2521
2523: 2495
2524: 2525
2525: 964 985 2338 2524
2526: 1297 2543
2527: 1193 2629 2660 2674
2528: 61
2529: 301 677
2530: 873
2531: 873
2532: 798
2533: 500 503 505 507 509 516 1213 1660 1864 2061 2174
2534: 1966
2535: 298 895 1231 2495
2536: 780 2606
2537: 411 780
2538: 2511 2539
2539: 2538
2540: 1474 2672
2541: 1474
2542: 38 212 2582 2598 2606 2660
2543: 38 2526 2544
2544: 2543
2545: 2546
2546: 659 2545
2547: 2548
2548: 2547
2549: 55 709 1394 1674 2517 2550
2550: 2549
2551: 2365
2552: 659
2553: 659
2554: 659
2555: 659
2556: 659
2557: 659
2558: 659
2559: 659
2560: 659
2561: 659 1984
2562: 659
2563: 659
2564: 659
2565: 659
2566: 659
2567: 659
2568: 55 137 162 582 859
2569: 51 582 661 823 2475 2666 2683
2570: 915 1437
2571: 619
2572: 350
2573: 350
2574: 350
2575: 1190
2576: 1873
2577: 1873
2578: 930
2579: 107 2268
2580: 953
2581: 301 1091 1092 1269
2582: 212 517 895 1130 1660 1989 2542 2583
2583: 377 869 2491 2582 2660
2584: 143
2585: 664 1507 2515
2586: 664
2587: 664
2588: 664
2589: 816
2590: 1615
2591: 119
2592: 918
2593: 56 61
2594: 1237 1351 2595
2595: 2594
2596: 595
2597: 2182
2598: 212 298 976 1539 1717 1841 1989 2495 2542 2599
2599: 2598
2600: 69 70 72
2601: 257 2057
2602: 303 569 2103
2603: 1737
2604: 1737
2605: 17 55 133 137 1211 1737 2423 2485 2495
2606: 212 298 2495 2536 2542
2607: 1402
2608: 1542 2072 2088
2609: 97
2610: 517
2611: 368
2612: 173 1753
2613: 419
2614: 203
2615: 1791
2616: 350 455
2617: 1396
2618: 1396
2619: 378
2620: 1953
2621: 946
2622: 2623
2623: 2622
2624: 1191
2625: 2626
2626: 2625
2627: 156 2511
2628: 1091
2629: 2527 2630
2630: 2629
2631: 826
2632: 965
2633: 624 626 1033
2634: 253
2635: 2515
2636: 264
2637: 1171
2638: 1732
2639: 106 107
2640: 51
2641: 2469
2642: 2469
2643: 250
2644: 2645
2645: 2644
2646: 2283
2647: 2648
2648: 2647
2649: 537 2182
2650: 44
2651: 327
2652: 74
2653: 859
2654: 1012
2655: 1636
2656: 250
2657: 260 1552
2658: 329
2659: 55 1495
2660: 51 71 116 130 135 204 212 298 377 436 517 554 801 848 895 976 1233 1238 1538 1906 1950 1970 1987 1988 2172 2343 2397 2527 2542 2583 2661 2662 2663 2664 2665
2661: 2660
2662: 2660
2663: 2660
2664: 2660
2665: 2660
2666: 2569
2667: 2495
2668: 2338
2669: 1507
2670: 492 2671
2671: 2670
2672: 44 135 291 299 2540
2673: 55 582 664 1211
2674: 2020 2527 2675
2675: 2674
2676: 2677
2677: 2676
2678: 688
2679: 582 848
2680: 432
2681: 432
2682: 432
2683: 2569
2684: 1633
2685: 2686 2687
2686: 2685
2687: 2685
2688: 436
2689: 1621
2690: 203 344
2691: 758
2692: 133 134 293
2693: 716
2694: 436
2695: 298 301 2495
2696: 265
2697: 496
2698: 65 654 1627
2699: 303
2700: 303
2701: 303
2702: 699 1091
2703: 49 2704
2704: 2703
2705: 2263
2706: 2263
2707: 1304
